<svg width="500" height="349" viewBox="0 0 500 349" fill="none" xmlns="http://www.w3.org/2000/svg">
<path d="M500 305.842H0V306.076H500V305.842Z" fill="#EBEBEB"/>
<path d="M449.9 320.873H416.78V321.105H449.9V320.873Z" fill="#EBEBEB"/>
<path d="M331.22 323.413H322.53V323.646H331.22V323.413Z" fill="#EBEBEB"/>
<path d="M415.78 312.204H396.59V312.437H415.78V312.204Z" fill="#EBEBEB"/>
<path d="M95.65 313.772H52.46V314.005H95.65V313.772Z" fill="#EBEBEB"/>
<path d="M110.89 313.772H104.56V314.005H110.89V313.772Z" fill="#EBEBEB"/>
<path d="M225.15 317.716H131.47V317.949H225.15V317.716Z" fill="#EBEBEB"/>
<path d="M237 264.178H43.91C42.3973 264.176 40.9475 263.613 39.8789 262.613C38.8102 261.613 38.21 260.257 38.21 258.844V5.2873C38.2232 3.88236 38.8292 2.53901 39.8964 1.54903C40.9637 0.559051 42.406 0.00240674 43.91 0H237C238.514 0 239.967 0.561975 241.038 1.5623C242.108 2.56262 242.71 3.91934 242.71 5.33401V258.844C242.71 260.259 242.108 261.616 241.038 262.616C239.967 263.616 238.514 264.178 237 264.178ZM43.91 0.186831C42.4636 0.189306 41.0774 0.727765 40.0557 1.68402C39.0339 2.64028 38.46 3.93619 38.46 5.2873V258.844C38.46 260.195 39.0339 261.491 40.0557 262.448C41.0774 263.404 42.4636 263.942 43.91 263.945H237C238.447 263.942 239.835 263.404 240.858 262.448C241.881 261.492 242.457 260.196 242.46 258.844V5.2873C242.457 3.93533 241.881 2.63944 240.858 1.68345C239.835 0.727462 238.447 0.189301 237 0.186831H43.91Z" fill="#EBEBEB"/>
<path d="M453.31 264.178H260.21C258.696 264.176 257.246 263.613 256.175 262.613C255.105 261.613 254.503 260.258 254.5 258.844V5.2873C254.516 3.88151 255.124 2.53816 256.193 1.54844C257.262 0.558725 258.705 0.00238049 260.21 0H453.31C454.812 0.00486179 456.252 0.562592 457.317 1.55231C458.382 2.54202 458.987 3.88397 459 5.2873V258.844C459 260.256 458.401 261.61 457.335 262.609C456.268 263.609 454.821 264.173 453.31 264.178ZM260.21 0.186831C258.763 0.189301 257.375 0.727462 256.352 1.68345C255.329 2.63944 254.753 3.93533 254.75 5.2873V258.844C254.753 260.196 255.329 261.492 256.352 262.448C257.375 263.404 258.763 263.942 260.21 263.945H453.31C454.757 263.942 456.145 263.404 457.168 262.448C458.191 261.492 458.767 260.196 458.77 258.844V5.2873C458.767 3.93533 458.191 2.63944 457.168 1.68345C456.145 0.727462 454.757 0.189301 453.31 0.186831H260.21Z" fill="#EBEBEB"/>
<path d="M440.45 80.1968H414.99V90.314H440.45V80.1968Z" fill="#F0F0F0"/>
<path d="M409.64 80.1968H384.18V90.314H409.64V80.1968Z" fill="#F0F0F0"/>
<path d="M455.86 94.2842H430.4V104.401H455.86V94.2842Z" fill="#F0F0F0"/>
<path d="M425.05 94.2842H399.59V104.401H425.05V94.2842Z" fill="#F0F0F0"/>
<path d="M445.71 10.7056H420.25V20.8223H445.71V10.7056Z" fill="#F0F0F0"/>
<path d="M414.9 10.7056H389.44V20.8223H414.9V10.7056Z" fill="#F0F0F0"/>
<path d="M440.45 108.372H414.99V118.488H440.45V108.372Z" fill="#F0F0F0"/>
<path d="M409.64 108.372H384.18V118.488H409.64V108.372Z" fill="#F0F0F0"/>
<path d="M430.3 24.7925H404.84V34.9092H430.3V24.7925Z" fill="#F0F0F0"/>
<path d="M261.98 12.2939H236.52V22.4106H261.98V12.2939Z" fill="#F0F0F0"/>
<path d="M231.17 12.2939H205.71V22.4106H231.17V12.2939Z" fill="#F0F0F0"/>
<path d="M277.38 26.3804H251.92V36.4971H277.38V26.3804Z" fill="#F0F0F0"/>
<path d="M246.57 26.3804H221.11V36.4971H246.57V26.3804Z" fill="#F0F0F0"/>
<path d="M215.76 26.3804H190.3V36.4971H215.76V26.3804Z" fill="#F0F0F0"/>
<path d="M292.78 40.4678H267.32V50.5845H292.78V40.4678Z" fill="#F0F0F0"/>
<path d="M261.98 40.4678H236.52V50.5845H261.98V40.4678Z" fill="#F0F0F0"/>
<path d="M231.17 40.4678H205.71V50.5845H231.17V40.4678Z" fill="#F0F0F0"/>
<path d="M277.38 54.5547H251.92V64.6719H277.38V54.5547Z" fill="#F0F0F0"/>
<path d="M246.57 54.5547H221.11V64.6719H246.57V54.5547Z" fill="#F0F0F0"/>
<path d="M267 143.224H241.54V153.341H267V143.224Z" fill="#F0F0F0"/>
<path d="M236.2 143.224H210.74V153.341H236.2V143.224Z" fill="#F0F0F0"/>
<path d="M431.22 184.299H405.76V194.416H431.22V184.299Z" fill="#F0F0F0"/>
<path d="M282.41 157.312H256.95V167.429H282.41V157.312Z" fill="#F0F0F0"/>
<path d="M251.6 157.312H226.14V167.429H251.6V157.312Z" fill="#F0F0F0"/>
<path d="M446.63 198.387H421.17V208.504H446.63V198.387Z" fill="#F0F0F0"/>
<path d="M415.82 198.387H390.36V208.504H415.82V198.387Z" fill="#F0F0F0"/>
<path d="M267 171.398H241.54V181.515H267V171.398Z" fill="#F0F0F0"/>
<path d="M236.2 171.398H210.74V181.515H236.2V171.398Z" fill="#F0F0F0"/>
<path d="M282.41 185.486H256.95V195.603H282.41V185.486Z" fill="#F0F0F0"/>
<path d="M251.6 185.486H226.14V195.603H251.6V185.486Z" fill="#F0F0F0"/>
<path d="M113.56 254.725H88.1V264.842H113.56V254.725Z" fill="#F0F0F0"/>
<path d="M82.75 254.725H57.29V264.842H82.75V254.725Z" fill="#F0F0F0"/>
<path d="M128.96 268.812H103.5V278.929H128.96V268.812Z" fill="#F0F0F0"/>
<path d="M98.15 268.812H72.69V278.929H98.15V268.812Z" fill="#F0F0F0"/>
<path d="M144.36 282.899H118.9V293.016H144.36V282.899Z" fill="#F0F0F0"/>
<path d="M113.56 282.899H88.1V293.016H113.56V282.899Z" fill="#F0F0F0"/>
<path d="M82.75 282.899H57.29V293.016H82.75V282.899Z" fill="#F0F0F0"/>
<path d="M128.96 296.986H103.5V307.103H128.96V296.986Z" fill="#F0F0F0"/>
<path d="M98.15 296.986H72.69V307.103H98.15V296.986Z" fill="#F0F0F0"/>
<path d="M67.34 296.986H41.88V307.103H67.34V296.986Z" fill="#F0F0F0"/>
<path d="M427.72 254.081H402.26V264.198H427.72V254.081Z" fill="#F0F0F0"/>
<path d="M396.91 254.081H371.45V264.198H396.91V254.081Z" fill="#F0F0F0"/>
<path d="M366.11 254.081H340.65V264.198H366.11V254.081Z" fill="#F0F0F0"/>
<path d="M443.13 268.158H417.67V278.275H443.13V268.158Z" fill="#F0F0F0"/>
<path d="M412.32 268.158H386.86V278.275H412.32V268.158Z" fill="#F0F0F0"/>
<path d="M381.51 268.158H356.05V278.275H381.51V268.158Z" fill="#F0F0F0"/>
<path d="M350.7 268.158H325.24V278.275H350.7V268.158Z" fill="#F0F0F0"/>
<path d="M458.53 282.246H433.07V292.362H458.53V282.246Z" fill="#F0F0F0"/>
<path d="M427.72 282.246H402.26V292.362H427.72V282.246Z" fill="#F0F0F0"/>
<path d="M396.91 282.246H371.45V292.362H396.91V282.246Z" fill="#F0F0F0"/>
<path d="M366.11 282.246H340.65V292.362H366.11V282.246Z" fill="#F0F0F0"/>
<path d="M443.13 296.333H417.67V306.449H443.13V296.333Z" fill="#F0F0F0"/>
<path d="M412.32 296.333H386.86V306.449H412.32V296.333Z" fill="#F0F0F0"/>
<path d="M381.51 296.333H356.05V306.449H381.51V296.333Z" fill="#F0F0F0"/>
<path d="M350.7 296.333H325.24V306.449H350.7V296.333Z" fill="#F0F0F0"/>
<path d="M197.78 87.8945H67.34V94.1548H197.78V87.8945Z" fill="#E0E0E0"/>
<path d="M79.1 64.8208H73.35V87.8945H79.1V64.8208Z" fill="#EBEBEB"/>
<path d="M106.88 64.8208H101.13V87.8945H106.88V64.8208Z" fill="#EBEBEB"/>
<path d="M138.434 64.2404L132.768 65.1528L136.963 87.8913L142.63 86.9789L138.434 64.2404Z" fill="#EBEBEB"/>
<path d="M86.22 67.8662H80.47V87.9038H86.22V67.8662Z" fill="#EBEBEB"/>
<path d="M99.42 67.8662H93.67V87.9038H99.42V67.8662Z" fill="#EBEBEB"/>
<path d="M132.76 67.8662H127.01V87.9038H132.76V67.8662Z" fill="#EBEBEB"/>
<path d="M114.431 67.1696L108.818 68.335L113.472 87.8952L119.085 86.7299L114.431 67.1696Z" fill="#EBEBEB"/>
<path d="M91.18 63.6724H88.31V87.8945H91.18V63.6724Z" fill="#EBEBEB"/>
<path d="M125.36 63.6724H122.49V87.8945H125.36V63.6724Z" fill="#EBEBEB"/>
<path d="M185.26 69.6323H157.26V87.689H185.26V69.6323Z" fill="#EBEBEB"/>
<path d="M67.34 140.89L197.78 140.89V134.63L67.34 134.63V140.89Z" fill="#E0E0E0"/>
<path d="M186.03 134.64H191.78V111.565H186.03V134.64Z" fill="#EBEBEB"/>
<path d="M158.24 134.64H163.99V111.565H158.24V134.64Z" fill="#EBEBEB"/>
<path d="M122.499 133.719L128.165 134.632L132.361 111.894L126.695 110.981L122.499 133.719Z" fill="#EBEBEB"/>
<path d="M178.9 134.63H184.65V114.593H178.9V134.63Z" fill="#EBEBEB"/>
<path d="M165.7 134.63H171.45V114.593H165.7V134.63Z" fill="#EBEBEB"/>
<path d="M132.36 134.63H138.11V114.593H132.36V134.63Z" fill="#EBEBEB"/>
<path d="M146.057 133.464L151.67 134.629L156.323 115.069L150.71 113.904L146.057 133.464Z" fill="#EBEBEB"/>
<path d="M173.94 134.63H176.81V110.408H173.94V134.63Z" fill="#EBEBEB"/>
<path d="M139.76 134.63H142.63V110.408H139.76V134.63Z" fill="#EBEBEB"/>
<path d="M79.85 134.434H107.85V116.377H79.85V134.434Z" fill="#EBEBEB"/>
<path d="M132.56 47.9038C145.566 47.9038 156.11 38.0544 156.11 25.9045C156.11 13.7547 145.566 3.90527 132.56 3.90527C119.554 3.90527 109.01 13.7547 109.01 25.9045C109.01 38.0544 119.554 47.9038 132.56 47.9038Z" fill="#E0E0E0"/>
<path d="M132.56 44.6152C143.622 44.6152 152.59 36.238 152.59 25.9041C152.59 15.5702 143.622 7.19287 132.56 7.19287C121.498 7.19287 112.53 15.5702 112.53 25.9041C112.53 36.238 121.498 44.6152 132.56 44.6152Z" fill="#F0F0F0"/>
<path d="M133.5 13.0688V26.1465L145.04 25.9036" fill="#F0F0F0"/>
<path d="M133.5 13.0688V26.1465L145.04 25.9036" stroke="#E0E0E0" stroke-width="2" stroke-linecap="round" stroke-linejoin="round"/>
<path d="M250 348.028C357.082 348.028 443.89 343.294 443.89 337.454C443.89 331.613 357.082 326.879 250 326.879C142.917 326.879 56.11 331.613 56.11 337.454C56.11 343.294 142.917 348.028 250 348.028Z" fill="#F5F5F5"/>
<g filter="url(#filter0_i)">
<path d="M417.57 30.3887H253.84V166.103H417.57V30.3887Z" fill="url(#paint0_linear)"/>
</g>
<path d="M413.26 34.106H257.94V162.459H413.26V34.106Z" fill="#263238"/>
<path d="M373.5 45.6235C370.497 45.3814 367.489 46.0355 364.91 47.4918C366.432 46.9222 368.076 46.6919 369.71 46.8193C371.794 46.9756 373.786 47.6911 375.445 48.8797C377.104 50.0684 378.36 51.6796 379.062 53.5194C379.764 55.3592 379.882 57.3493 379.402 59.2503C378.921 61.1513 377.863 62.8822 376.355 64.2347C374.847 65.5873 372.952 66.5039 370.899 66.8743C368.846 67.2447 366.722 67.053 364.783 66.3225C362.844 65.5919 361.172 64.3535 359.969 62.7563C358.766 61.159 358.082 59.271 358 57.3193C358 57.5342 357.89 57.721 357.87 57.9358C357.627 60.5981 358.235 63.2678 359.616 65.6074C360.997 67.947 363.091 69.8513 365.631 71.0795C368.171 72.3077 371.044 72.8047 373.886 72.5075C376.729 72.2103 379.413 71.1323 381.599 69.4099C383.786 67.6875 385.377 65.398 386.17 62.831C386.964 60.264 386.924 57.5348 386.057 54.9886C385.19 52.4425 383.535 50.1937 381.299 48.5267C379.064 46.8597 376.35 45.8494 373.5 45.6235Z" fill="white"/>
<path opacity="0.1" d="M413.26 102.318V162.459H257.94V135.032H262.08V137.881H264.5V149.054H265.32V133.481H266.67V143.468H268.17V119.693H269.52V129.679H273.29V125.999H275.07V112.444H276.14V112.211H277.92V98.6655H279.19V100.655H300.07V94.5926H303.64V73.0884H305.04V94.5926H310V100.655H312.29V129.175H322.97V120.618H319.16V118.955H322.97V116.816H333.15V94.9569H335.7V91.622H347.65V94.9569H349.44V125.139H355.03V139.161H357.9V127.989H360.32V125.139H365.92V115.396H368.98V108.502H372.75V98.46H374.09V108.502H377.86V115.396H380.93V125.139H386.53V127.989H388.94V139.161H392.61V109.81H393.96V119.787H398.8V139.161H400.58V102.318H402.36V88.7728H403.63V93.5651L412.82 97.5632V102.318H413.26Z" fill="white"/>
<g opacity="0.2">
<path opacity="0.2" d="M294.4 34.1069L257.94 162.18V102.001L277.19 34.1069H294.4Z" fill="white"/>
<path opacity="0.2" d="M307.31 34.106L270.54 162.459H264.67L301.44 34.106H307.31Z" fill="white"/>
</g>
<path d="M413.26 115.097V135.611L405.82 162.458H399.95L413.26 115.097Z" fill="white"/>
<g filter="url(#filter1_i)">
<path d="M389.89 27.0908C389.89 27.0908 393.65 73.0046 415.32 96.4146C415.32 96.4146 399.54 155.5 399.55 176.107L428.87 171.054L418.3 96.7602L423.36 27.0908H389.89Z" fill="url(#paint1_linear)"/>
</g>
<g filter="url(#filter2_i)">
<path d="M281.53 27.0908C281.53 27.0908 277.76 73.0046 256.1 96.4146C256.1 96.4146 271.88 155.5 271.87 176.107L242.54 171.054L253.11 96.7509L248.06 27.0908H281.53Z" fill="url(#paint2_linear)"/>
</g>
<path d="M426.49 24.895H244.93C243.759 24.895 242.81 25.7818 242.81 26.8758V29.8283C242.81 30.9223 243.759 31.8091 244.93 31.8091H426.49C427.661 31.8091 428.61 30.9223 428.61 29.8283V26.8758C428.61 25.7818 427.661 24.895 426.49 24.895Z" fill="#407BFF"/>
<path d="M73.87 337.5L88.7 245.458V337.5H94.7V244.59L109.59 337.5H116.02L95.5 209.456L95.18 209.493V140.17H88.12V209.484L87.88 209.456L67.3 337.5H73.87Z" fill="#263238"/>
<g filter="url(#filter3_i)">
<path d="M122.56 159.703H60.74L65.75 111.454H117.56L122.56 159.703Z" fill="url(#paint3_linear)"/>
</g>
<path opacity="0.5" d="M73.87 337.501L88.7 245.449V337.501H94.7V244.59L109.59 337.501H116.02L95.5 209.447L95.18 209.494V178.19L88.12 181.694V209.485L87.88 209.447L67.3 337.501H73.87Z" fill="white"/>
<path d="M412.32 282.62H169.23V211.624C169.23 203.77 172.57 196.238 178.515 190.684C184.46 185.131 192.523 182.011 200.93 182.011L380.62 182.011C389.027 182.011 397.09 185.131 403.035 190.684C408.98 196.238 412.32 203.77 412.32 211.624V282.62Z" fill="#263238"/>
<path d="M102.67 337.501H169.23V221.442C169.23 216.774 167.245 212.298 163.712 208.997C160.179 205.697 155.387 203.842 150.39 203.842H121.51C116.513 203.842 111.721 205.697 108.188 208.997C104.655 212.298 102.67 216.774 102.67 221.442V337.501Z" fill="#263238"/>
<path d="M149.02 337.501H388.81V292.774H149.02V337.501Z" fill="#7D8488"/>
<path d="M148.7 308.131L380.61 308.131C391.186 308.131 399.76 300.122 399.76 290.242V279.088C399.76 269.208 391.186 261.199 380.61 261.199H148.7C138.124 261.199 129.55 269.208 129.55 279.088V290.242C129.55 300.122 138.124 308.131 148.7 308.131Z" fill="#3C464C"/>
<path opacity="0.2" d="M353.76 308.131H380.26C390.836 308.131 399.41 300.122 399.41 290.242V279.088C399.41 269.208 390.836 261.199 380.26 261.199H353.76C343.184 261.199 334.61 269.208 334.61 279.088V290.242C334.61 300.122 343.184 308.131 353.76 308.131Z" fill="black"/>
<path d="M364.28 337.501H430.84V221.442C430.84 219.131 430.353 216.842 429.406 214.707C428.459 212.571 427.071 210.631 425.322 208.997C423.572 207.363 421.495 206.066 419.21 205.182C416.924 204.298 414.474 203.842 412 203.842H383.12C378.123 203.842 373.331 205.697 369.798 208.997C366.265 212.298 364.28 216.774 364.28 221.442V337.501Z" fill="#263238"/>
<path opacity="0.4" d="M364.28 337.501H402.56V221.442C402.56 216.776 400.576 212.301 397.045 209C393.514 205.7 388.725 203.845 383.73 203.842H383.12C378.123 203.842 373.331 205.697 369.798 208.997C366.265 212.298 364.28 216.774 364.28 221.442V337.501Z" fill="white"/>
<path d="M185.27 134.64C185.27 134.64 188.2 128.297 176 124.449C163.8 120.6 155.06 129.334 151.64 138.816C148.22 148.298 152.72 146.691 143.64 151.137C134.56 155.584 136.91 160.656 138.38 162.291C139.85 163.926 131.66 171.25 138.53 177.238C145.4 183.226 172.41 184.711 179.91 172.847C187.41 160.983 194.34 134.799 185.27 134.64Z" fill="#263238"/>
<path d="M183.86 135.658C184.901 134.94 186.168 134.564 187.462 134.591C188.757 134.618 190.004 135.046 191.01 135.808C194.91 138.47 192.91 149.045 189.83 153.193C186.75 157.34 190.35 161.31 188.08 163.945" stroke="#263238" stroke-width="0.5" stroke-linecap="round" stroke-linejoin="round"/>
<path d="M183.08 134.687C183.08 134.687 188.23 133.912 185.08 128.101C181.93 122.291 173.17 120.357 166.51 122.814C159.85 125.271 156.44 129.783 155.44 135.117" stroke="#263238" stroke-width="0.5" stroke-linecap="round" stroke-linejoin="round"/>
<path d="M152.38 141.666C152.38 141.666 151.65 146.691 147.26 147.616C142.87 148.541 131.26 153.697 133.8 159.19C136.34 164.683 132.86 165.729 131.61 168.532C130.36 171.334 133.78 172.474 133.78 172.474" stroke="#263238" stroke-width="0.5" stroke-linecap="round" stroke-linejoin="round"/>
<path d="M185 155.322C185 155.322 182 163.001 184.72 166.402C187.44 169.802 184.83 175.174 182.57 175.22" stroke="#263238" stroke-width="0.5" stroke-linecap="round" stroke-linejoin="round"/>
<path d="M307.53 262.255C306.79 262.199 307.38 256.136 307.38 256.136C309.825 255.165 311.951 253.609 313.546 251.624C315.14 249.639 316.145 247.297 316.46 244.833C317.09 239.611 321.14 242.768 320.86 248.476C320.58 254.184 320.37 258.546 320.18 262.601C319.99 266.655 315.25 262.75 307.53 262.255Z" fill="#EBB376"/>
<path opacity="0.2" d="M307.53 262.255C306.79 262.199 307.38 256.136 307.38 256.136C309.825 255.165 311.951 253.609 313.546 251.624C315.14 249.639 316.145 247.297 316.46 244.833C317.09 239.611 321.14 242.768 320.86 248.476C320.58 254.184 320.37 258.546 320.18 262.601C319.99 266.655 315.25 262.75 307.53 262.255Z" fill="black"/>
<path d="M309.49 255.828L309.19 262.143L299.73 262.778L291.05 263.348L290.11 255.8L300.37 255.809L309.49 255.828Z" fill="#EBB376"/>
<path opacity="0.2" d="M309.49 255.828L309.19 262.143L299.73 262.778L291.05 263.348L290.11 255.8L300.37 255.809L309.49 255.828Z" fill="black"/>
<path d="M320.51 253.95L318.38 259.947L309.09 258.153L300.57 256.491L301.87 248.99L311.74 251.615L320.51 253.95Z" fill="#EBB376"/>
<path d="M316.91 259.574C316.21 259.341 318.69 253.605 318.69 253.605C318.69 253.605 325.56 252.531 330.42 245.141C333.37 240.657 335.52 244.347 333.59 249.766L328.82 263.19C327.44 267.038 324.19 262.012 316.91 259.574Z" fill="#EBB376"/>
<path opacity="0.2" d="M311.94 251.671L309.27 258.21L300.66 256.519L301.91 249.009L311.94 251.671Z" fill="black"/>
<path d="M298 252.119L296.8 257.575L295.35 264.114L233.11 263.33H223.11H220.62H214.15H213.75C199.36 263.376 180.57 263.432 170.75 263.432H170.2C153.8 262.816 169.8 234.379 169.8 234.379L298 252.119Z" fill="#407BFF"/>
<path opacity="0.1" d="M298 252.119L296.8 257.575L295.35 264.114L233.11 263.33H223.11H220.62H214.15H213.75C199.36 263.376 180.57 263.432 170.75 263.432H170.2C153.8 262.816 169.8 234.379 169.8 234.379L298 252.119Z" fill="#2BB3FF"/>
<path d="M308.92 249.522L305.92 259.592L296.78 257.575H296.7C278.99 253.698 241.49 245.599 236.42 245.375C234.785 245.474 233.181 245.837 231.68 246.449C228.18 247.626 223.33 249.672 217.63 251.951L217.41 252.035C208.736 255.62 199.788 258.596 190.64 260.938L190.42 260.984C183.991 262.595 177.375 263.458 170.72 263.553H170.17C143.17 262.993 152.09 220.974 152.09 220.974L185.09 218.611L191.09 228.27L195.85 227.074L197.76 226.598L203.25 225.225C213.25 222.759 226.57 219.526 232.09 218.49C234.84 217.976 242.64 220.461 252.27 224.225L255.01 225.318L255.88 225.673C256.88 226.056 257.83 226.458 258.82 226.869C270.55 231.708 283.75 237.714 293.65 242.329L301.14 245.851C306 248.084 308.92 249.522 308.92 249.522Z" fill="#407BFF"/>
<path opacity="0.1" d="M308.92 249.522L305.92 259.592L296.78 257.575H296.7C278.99 253.698 241.49 245.599 236.42 245.375C234.785 245.474 233.181 245.837 231.68 246.449C228.18 247.626 223.33 249.672 217.63 251.951L217.41 252.035C208.736 255.62 199.788 258.596 190.64 260.938L190.42 260.984C183.991 262.595 177.375 263.458 170.72 263.553H170.17C143.17 262.993 152.09 220.974 152.09 220.974L185.09 218.611L191.09 228.27L195.85 227.074L197.76 226.598L203.25 225.225C213.25 222.759 226.57 219.526 232.09 218.49C234.84 217.976 242.64 220.461 252.27 224.225L255.01 225.318L255.88 225.673C256.88 226.056 257.83 226.458 258.82 226.869C270.55 231.708 283.75 237.714 293.65 242.329L301.14 245.851C306 248.084 308.92 249.522 308.92 249.522Z" fill="#2BB3FF"/>
<g opacity="0.4">
<path opacity="0.4" d="M182.98 246.561L184.15 246.458L184.73 245.496L185.19 246.515L186.35 246.729L185.47 247.458L185.6 248.551L184.59 247.991L183.52 248.448L183.78 247.374L182.98 246.561Z" fill="white"/>
<path opacity="0.4" d="M165.18 254.249L166.35 254.147L166.93 253.184L167.4 254.193L168.56 254.408L167.67 255.137L167.81 256.23L166.79 255.67L165.72 256.128L165.98 255.053L165.18 254.249Z" fill="white"/>
<path opacity="0.4" d="M215.07 250.167L216.25 250.064L216.82 249.111L217.29 250.12L218.44 250.335L217.56 251.064L217.7 252.157L216.68 251.597L215.61 252.054L215.87 250.98L215.07 250.167Z" fill="white"/>
<path opacity="0.4" d="M267.34 237.612L268.52 237.509L269.09 236.547L269.56 237.556L270.72 237.771L269.83 238.5L269.97 239.593L268.95 239.032L267.88 239.49L268.14 238.416L267.34 237.612Z" fill="white"/>
<path opacity="0.4" d="M212.44 231.474L213.62 231.371L214.19 230.409L214.66 231.418L215.82 231.633L214.93 232.361L215.07 233.464L214.05 232.894L212.98 233.361L213.24 232.277L212.44 231.474Z" fill="white"/>
<path opacity="0.4" d="M240.84 233.885L242.02 233.782L242.59 232.829L243.06 233.838L244.22 234.053L243.33 234.782L243.47 235.875L242.45 235.314L241.38 235.772L241.64 234.697L240.84 233.885Z" fill="white"/>
<path opacity="0.4" d="M188.08 259.116L189.25 259.013L189.83 258.051L190.29 259.06L191.45 259.284L190.57 260.004L190.7 261.097L189.69 260.536L188.62 260.994L188.88 259.919L188.08 259.116Z" fill="white"/>
<path opacity="0.4" d="M229.68 259.05L232.23 256.967L231.84 253.829L234.74 255.454L237.82 254.137L237.07 257.22L239.36 259.546L235.99 259.826L234.33 262.582L233 259.676L229.68 259.05Z" fill="white"/>
<path opacity="0.4" d="M205.25 228.868L201.88 229.148L200.22 231.904L198.88 228.999L195.57 228.373L197.8 226.505L203.29 225.132L202.96 226.505L205.25 228.868Z" fill="white"/>
<path opacity="0.4" d="M252.15 255.295L253.92 253.847L253.65 251.651L255.68 252.791L257.82 251.866L257.3 254.015L258.9 255.641L256.55 255.837L255.39 257.762L254.46 255.735L252.15 255.295Z" fill="white"/>
<path opacity="0.4" d="M196.85 252.016L199.95 249.485L199.48 245.655L203.02 247.626L206.77 246.028L205.85 249.784L208.64 252.614L204.54 252.96L202.51 256.323L200.89 252.782L196.85 252.016Z" fill="white"/>
<path opacity="0.4" d="M302.64 247.281L298.53 247.626L296.53 250.99L294.9 247.449L290.9 246.683L294 244.151L293.77 242.282L301.26 245.804L302.64 247.281Z" fill="white"/>
<path opacity="0.4" d="M261.42 230.736L257.31 231.082L255.31 234.436L253.69 230.895L249.69 230.138L252.8 227.597L252.38 224.244L255.12 225.337L255.85 225.748L255.99 225.692C256.99 226.075 257.94 226.476 258.93 226.887L258.69 227.896L261.42 230.736Z" fill="white"/>
<path opacity="0.4" d="M173.7 251.605C173.353 252.462 173.3 253.4 173.55 254.286C173.502 253.789 173.574 253.288 173.76 252.82C174.002 252.221 174.424 251.701 174.975 251.322C175.526 250.943 176.183 250.721 176.866 250.682C177.55 250.644 178.23 250.791 178.826 251.105C179.422 251.42 179.908 251.888 180.226 252.455C180.543 253.021 180.678 253.662 180.615 254.298C180.552 254.935 180.294 255.541 179.87 256.044C179.447 256.546 178.877 256.924 178.23 257.131C177.582 257.338 176.884 257.365 176.22 257.21L176.42 257.304C177.292 257.615 178.243 257.678 179.153 257.485C180.063 257.292 180.891 256.851 181.533 256.218C182.175 255.585 182.601 254.788 182.759 253.929C182.916 253.07 182.797 252.186 182.417 251.39C182.037 250.593 181.413 249.92 180.623 249.455C179.834 248.99 178.915 248.754 177.982 248.777C177.049 248.8 176.144 249.081 175.382 249.585C174.62 250.088 174.034 250.791 173.7 251.605Z" fill="white"/>
<path opacity="0.4" d="M274.52 257.416C274.34 257.845 274.312 258.317 274.44 258.762C274.417 258.511 274.455 258.259 274.55 258.023C274.672 257.726 274.884 257.468 275.159 257.28C275.435 257.092 275.762 256.982 276.103 256.964C276.443 256.946 276.782 257.021 277.079 257.178C277.375 257.336 277.616 257.571 277.774 257.854C277.931 258.136 277.997 258.456 277.965 258.773C277.932 259.09 277.802 259.392 277.591 259.642C277.379 259.892 277.094 260.079 276.771 260.182C276.448 260.284 276.101 260.297 275.77 260.219C275.804 260.233 275.838 260.248 275.87 260.266C276.305 260.423 276.781 260.457 277.237 260.361C277.692 260.266 278.107 260.047 278.43 259.731C278.752 259.416 278.967 259.018 279.047 258.588C279.127 258.158 279.069 257.716 278.88 257.317C278.691 256.918 278.38 256.58 277.985 256.347C277.591 256.113 277.131 255.994 276.664 256.005C276.198 256.016 275.745 256.155 275.363 256.407C274.981 256.658 274.688 257.009 274.52 257.416Z" fill="white"/>
<path opacity="0.4" d="M272.16 244.861C271.98 245.29 271.952 245.761 272.08 246.206C272.047 245.857 272.133 245.507 272.327 245.206C272.521 244.906 272.812 244.671 273.158 244.535C273.505 244.4 273.888 244.37 274.253 244.452C274.618 244.533 274.946 244.721 275.19 244.987C275.434 245.254 275.58 245.587 275.608 245.937C275.636 246.286 275.545 246.635 275.346 246.933C275.148 247.231 274.854 247.463 274.506 247.594C274.158 247.725 273.774 247.75 273.41 247.664L273.51 247.711C273.945 247.868 274.421 247.901 274.877 247.806C275.332 247.711 275.747 247.492 276.07 247.176C276.392 246.86 276.607 246.463 276.687 246.033C276.767 245.603 276.709 245.161 276.52 244.762C276.331 244.363 276.02 244.025 275.625 243.792C275.231 243.558 274.771 243.439 274.305 243.45C273.838 243.46 273.385 243.6 273.003 243.851C272.621 244.103 272.328 244.454 272.16 244.861Z" fill="white"/>
<path opacity="0.4" d="M223.12 263.432H220.63C220.231 262.636 219.513 262.018 218.63 261.713C217.782 261.407 216.841 261.418 216.001 261.744C215.161 262.069 214.488 262.683 214.12 263.46H213.72C213.757 263.095 213.848 262.737 213.99 262.395C214.367 261.477 215.061 260.703 215.962 260.196C216.863 259.689 217.92 259.478 218.964 259.596C220.008 259.714 220.981 260.155 221.726 260.848C222.472 261.541 222.948 262.447 223.08 263.423L223.12 263.432Z" fill="white"/>
<path opacity="0.4" d="M225.27 225.972C224.918 226.832 224.866 227.773 225.12 228.662C225.066 228.165 225.138 227.662 225.33 227.196C225.572 226.6 225.992 226.082 226.542 225.704C227.091 225.326 227.745 225.104 228.426 225.066C229.107 225.027 229.786 225.173 230.38 225.487C230.974 225.8 231.459 226.266 231.775 226.831C232.092 227.395 232.228 228.033 232.166 228.667C232.104 229.302 231.847 229.906 231.426 230.408C231.005 230.909 230.438 231.286 229.793 231.494C229.148 231.701 228.452 231.73 227.79 231.577C227.851 231.612 227.915 231.643 227.98 231.67C228.851 231.983 229.802 232.048 230.713 231.856C231.624 231.665 232.453 231.225 233.096 230.593C233.739 229.961 234.167 229.165 234.326 228.305C234.485 227.446 234.368 226.562 233.989 225.765C233.61 224.968 232.986 224.294 232.197 223.828C231.408 223.362 230.489 223.125 229.555 223.147C228.622 223.17 227.717 223.45 226.954 223.952C226.191 224.455 225.605 225.158 225.27 225.972Z" fill="white"/>
</g>
<path opacity="0.2" d="M185.13 218.592L185.91 238.593L231.72 246.44L296.72 257.565L227.47 236.08L191.27 237.416C191.496 233.568 193.119 229.908 195.87 227.037L191.11 228.233L185.13 218.592Z" fill="black"/>
<path d="M184.9 165.523C192.82 167.943 189.33 192.66 194.9 199.891C198.9 205.122 216.24 207.962 219.56 211.39C222.88 214.818 218.56 220.526 218.56 220.526C218.56 220.526 188.56 217.126 181.44 213.268C174.32 209.41 184.9 165.523 184.9 165.523Z" fill="#407BFF"/>
<path opacity="0.1" d="M219.4 219.246C219.156 219.687 218.886 220.114 218.59 220.526C218.59 220.526 188.59 217.126 181.46 213.268C179.28 212.081 178.76 207.074 179.1 200.713V200.115C179.549 194.166 180.32 188.242 181.41 182.366C183.03 173.164 184.87 165.504 184.87 165.504C188.64 166.653 189.81 172.828 190.62 179.778C190.83 181.497 191 183.263 191.19 185.019C191.83 191.081 192.59 196.929 194.86 199.872C196.22 201.637 199.09 203.123 202.43 204.468C203.23 204.785 204.05 205.094 204.88 205.402C210.88 207.588 217.58 209.4 219.52 211.399C221.89 213.819 220.45 217.359 219.4 219.246Z" fill="#2BB3FF"/>
<g opacity="0.4">
<path opacity="0.4" d="M191.22 185.038L189.94 186.906L188.76 183.945L185.47 183.179L188.12 181.208L187.88 178.06L190.65 179.769C190.86 181.516 191 183.282 191.22 185.038Z" fill="white"/>
<path opacity="0.4" d="M207.99 210.054L209.96 211.269L212.15 210.447L211.52 212.567L213.04 214.258L210.68 214.351L209.43 216.229L208.6 214.164L206.31 213.632L208.16 212.259L207.99 210.054Z" fill="white"/>
<path opacity="0.4" d="M190.26 201.675L186.15 201.843L183.96 205.112L182.51 201.507L179.1 200.713V200.115L181.71 198.181L181.42 194.342L184.87 196.462L188.69 195.024L187.59 198.76L190.26 201.675Z" fill="white"/>
<path opacity="0.4" d="M204.91 205.403C204.327 206.222 203.468 206.837 202.469 207.148C201.47 207.459 200.388 207.448 199.396 207.118C198.403 206.789 197.558 206.158 196.993 205.328C196.428 204.497 196.177 203.514 196.28 202.534C196.28 202.459 196.28 202.394 196.28 202.329C196.293 202.989 196.518 203.63 196.926 204.169C197.333 204.709 197.905 205.121 198.566 205.354C199.228 205.586 199.949 205.628 200.636 205.473C201.323 205.319 201.944 204.975 202.42 204.487C203.26 204.805 204.08 205.113 204.91 205.403Z" fill="white"/>
</g>
<path opacity="0.2" d="M219.4 219.246C219.156 219.687 218.886 220.114 218.59 220.526C218.59 220.526 188.59 217.126 181.46 213.267C179.28 212.081 178.76 207.074 179.1 200.712V200.115C179.549 194.166 180.32 188.242 181.41 182.366C183.72 187.214 186.76 195.005 189.69 206.756C189.72 206.775 196.59 212.987 219.4 219.246Z" fill="black"/>
<path d="M194.35 227.43L187.76 233.306L180.43 227V239.817L156.49 261.181C150.12 255.912 148.6 241.218 148.03 224.982C147.71 215.641 147.7 205.842 147.28 196.958C147.22 195.79 147.16 194.65 147.08 193.529C146.869 189.642 146.449 185.766 145.82 181.918C145.448 179.629 144.883 177.37 144.13 175.164C143.78 174.183 143.42 173.156 143.03 172.1C142.907 171.756 142.86 171.391 142.892 171.03C142.923 170.668 143.033 170.316 143.214 169.994C143.396 169.673 143.645 169.39 143.946 169.161C144.248 168.932 144.596 168.762 144.97 168.662C148.519 167.719 152.121 166.962 155.76 166.392C160.657 165.581 165.609 165.094 170.58 164.935C177.01 164.935 184.38 165.561 184.38 165.561C184.38 165.561 185.44 165.804 186.09 172.156C186.726 179.373 186.933 186.618 186.71 193.856C186.63 198.238 186.45 203.273 186.13 209.046C186.13 209.98 186.03 210.849 185.97 211.783L194.35 227.43Z" fill="#39B7FD"/>
<g opacity="0.4">
<path opacity="0.4" d="M181.4 196.78L181.93 197.761L183.09 197.929L182.25 198.695L182.45 199.779L181.4 199.265L180.36 199.779L180.56 198.695L179.71 197.929L180.88 197.761L181.4 196.78Z" fill="white"/>
<path opacity="0.4" d="M167.34 184.01L167.87 185L169.03 185.159L168.19 185.925L168.39 187.018L167.34 186.504L166.3 187.018L166.5 185.925L165.65 185.159L166.82 185L167.34 184.01Z" fill="white"/>
<path opacity="0.4" d="M189.31 226.056L189.83 227.047L191 227.206L190.15 227.972L190.35 229.056L189.31 228.542L188.26 229.056L188.46 227.972L187.62 227.206L188.78 227.047L189.31 226.056Z" fill="white"/>
<path opacity="0.4" d="M176.42 168.727L176.94 169.717L178.11 169.876L177.27 170.642L177.47 171.726L176.42 171.212L175.38 171.726L175.58 170.642L174.73 169.876L175.9 169.717L176.42 168.727Z" fill="white"/>
<path opacity="0.4" d="M159.05 252.558L155.7 253.006L154.2 255.809L152.7 253.006L151.51 252.838C151.32 252.268 151.14 251.68 150.98 251.073L151.78 250.344L151.22 247.233L154.22 248.709L157.22 247.233L156.64 250.353L159.05 252.558Z" fill="white"/>
<path opacity="0.4" d="M170.98 231.343L173.07 232.371L175.16 231.353L174.76 233.52L176.45 235.062L174.11 235.38L173.06 237.351L172.02 235.37L169.69 235.053L171.38 233.52L170.98 231.343Z" fill="white"/>
<path opacity="0.4" d="M151.99 189.26L154.07 190.288L156.16 189.269L155.76 191.437L157.45 192.978L155.11 193.296L154.06 195.268L153.02 193.287L150.69 192.969L152.38 191.437L151.99 189.26Z" fill="white"/>
<path opacity="0.4" d="M189.02 217.527L186.39 217.873L184.56 221.329L182.74 217.873L178.66 217.312L181.62 214.631L180.92 210.829L184.57 212.623L186.01 211.922L189.02 217.527Z" fill="white"/>
<path opacity="0.4" d="M151.46 171.81L155.11 173.613L158.76 171.819L158.06 175.621L161 178.312L156.92 178.863L155.09 182.31L153.27 178.854L149.19 178.293L152.15 175.612L151.46 171.81Z" fill="white"/>
<path opacity="0.4" d="M181.14 180.357C180.156 180.362 179.199 180.652 178.4 181.188C178.879 180.968 179.406 180.853 179.94 180.852C180.621 180.85 181.288 181.032 181.861 181.375C182.434 181.719 182.889 182.209 183.171 182.788C183.454 183.367 183.551 184.01 183.452 184.639C183.354 185.268 183.062 185.858 182.614 186.336C182.166 186.815 181.579 187.163 180.924 187.338C180.27 187.513 179.575 187.508 178.923 187.323C178.272 187.139 177.691 186.783 177.25 186.298C176.81 185.813 176.528 185.219 176.44 184.589C176.44 184.663 176.44 184.729 176.44 184.794C176.44 185.666 176.717 186.519 177.235 187.244C177.754 187.969 178.491 188.534 179.354 188.868C180.216 189.201 181.165 189.289 182.081 189.118C182.996 188.948 183.837 188.528 184.497 187.912C185.158 187.295 185.607 186.509 185.789 185.654C185.971 184.799 185.878 183.912 185.521 183.107C185.163 182.301 184.558 181.612 183.782 181.128C183.006 180.644 182.093 180.385 181.16 180.385L181.14 180.357Z" fill="white"/>
<path opacity="0.4" d="M161.13 196.07C160.637 196.072 160.158 196.219 159.76 196.49C159.999 196.378 160.263 196.32 160.53 196.322C160.87 196.321 161.204 196.412 161.491 196.584C161.777 196.755 162.005 197.001 162.146 197.29C162.287 197.58 162.336 197.901 162.286 198.216C162.237 198.53 162.091 198.825 161.867 199.065C161.643 199.304 161.349 199.478 161.022 199.565C160.695 199.653 160.347 199.65 160.022 199.558C159.696 199.466 159.405 199.288 159.185 199.045C158.965 198.803 158.824 198.506 158.78 198.191C158.78 198.191 158.78 198.265 158.78 198.293C158.78 198.729 158.918 199.156 159.178 199.518C159.437 199.881 159.806 200.163 160.237 200.33C160.668 200.497 161.143 200.541 161.6 200.456C162.058 200.371 162.479 200.161 162.809 199.852C163.139 199.544 163.364 199.151 163.455 198.723C163.546 198.296 163.499 197.852 163.32 197.45C163.142 197.047 162.839 196.702 162.451 196.46C162.063 196.218 161.607 196.088 161.14 196.088L161.13 196.07Z" fill="white"/>
<path opacity="0.4" d="M155.1 225.533C154.115 225.531 153.155 225.822 152.36 226.364C152.837 226.138 153.365 226.02 153.9 226.018C154.584 226.015 155.254 226.195 155.831 226.539C156.407 226.883 156.865 227.374 157.15 227.955C157.434 228.536 157.533 229.181 157.434 229.813C157.335 230.446 157.043 231.038 156.593 231.518C156.143 231.999 155.553 232.348 154.896 232.523C154.238 232.699 153.54 232.693 152.886 232.507C152.232 232.32 151.65 231.962 151.208 231.474C150.767 230.985 150.487 230.389 150.4 229.755C150.4 229.82 150.4 229.886 150.4 229.961C150.4 230.833 150.677 231.685 151.195 232.41C151.714 233.135 152.451 233.7 153.314 234.034C154.176 234.368 155.125 234.455 156.041 234.285C156.956 234.115 157.797 233.695 158.458 233.078C159.118 232.462 159.567 231.676 159.749 230.821C159.931 229.965 159.838 229.079 159.481 228.273C159.123 227.468 158.518 226.779 157.742 226.294C156.966 225.81 156.053 225.551 155.12 225.551L155.1 225.533Z" fill="white"/>
</g>
<path opacity="0.2" d="M169.74 174.818C172.21 186.383 172.25 205.963 172.25 207.14C171.456 196.426 169.815 185.782 167.34 175.294C161.11 173.818 155.1 168.755 155.1 168.755L156.81 166.317C161.365 165.608 165.965 165.177 170.58 165.028C171.27 165.028 171.98 165.028 172.68 165.028C173.499 165.384 174.137 166.024 174.46 166.812C175.09 169.129 169.74 174.818 169.74 174.818Z" fill="black"/>
<path opacity="0.2" d="M172.91 176.304C172.91 176.505 172.825 176.697 172.673 176.839C172.521 176.981 172.315 177.061 172.1 177.061C171.884 177.061 171.677 176.982 171.524 176.84C171.37 176.698 171.283 176.505 171.28 176.304C171.28 176.1 171.366 175.905 171.52 175.762C171.674 175.618 171.882 175.537 172.1 175.537C172.316 175.54 172.522 175.621 172.673 175.765C172.825 175.908 172.91 176.102 172.91 176.304Z" fill="black"/>
<path opacity="0.2" d="M173.88 192.268C173.88 192.469 173.795 192.661 173.643 192.803C173.491 192.945 173.285 193.025 173.07 193.025C172.854 193.025 172.647 192.945 172.494 192.804C172.34 192.662 172.253 192.469 172.25 192.268C172.25 192.065 172.336 191.87 172.49 191.726C172.644 191.582 172.852 191.501 173.07 191.501C173.286 191.504 173.492 191.586 173.643 191.729C173.795 191.873 173.88 192.066 173.88 192.268Z" fill="black"/>
<path opacity="0.2" d="M174.7 209.064C174.697 209.265 174.61 209.458 174.456 209.599C174.303 209.741 174.096 209.82 173.88 209.82C173.679 209.8 173.494 209.71 173.359 209.57C173.225 209.429 173.15 209.248 173.15 209.059C173.15 208.871 173.225 208.689 173.359 208.548C173.494 208.408 173.679 208.319 173.88 208.298C174.097 208.298 174.306 208.379 174.46 208.522C174.614 208.666 174.7 208.861 174.7 209.064Z" fill="black"/>
<path opacity="0.2" d="M180.53 223.768C180.527 223.97 180.44 224.162 180.286 224.304C180.133 224.445 179.926 224.525 179.71 224.525C179.495 224.525 179.289 224.445 179.137 224.303C178.985 224.161 178.9 223.969 178.9 223.768C178.9 223.567 178.985 223.373 179.137 223.23C179.288 223.086 179.494 223.004 179.71 223.002C179.927 223.002 180.136 223.083 180.29 223.226C180.444 223.37 180.53 223.565 180.53 223.768Z" fill="black"/>
<path opacity="0.2" d="M147.08 193.594C146.869 189.707 146.449 185.831 145.82 181.983C147.1 178.947 147.99 177.061 147.99 177.061C147.99 177.061 152.72 182.917 147.08 193.594Z" fill="black"/>
<path opacity="0.2" d="M186.71 193.921C186.63 198.303 186.45 203.338 186.13 209.111C179.31 213.09 161.91 222.656 148.03 224.991C147.71 215.65 147.7 205.85 147.28 196.967C160.506 198.552 173.942 197.514 186.71 193.921Z" fill="black"/>
<path d="M252.14 218.321L252.27 221.068C252.27 221.769 251.44 222.096 250.69 222.124L192.05 224.655C191.3 224.655 190.38 224.44 190.34 223.721L190.21 220.984L252.14 218.321Z" fill="#263238"/>
<path opacity="0.7" d="M252.14 218.321L252.27 221.068C252.27 221.769 251.44 222.096 250.69 222.124L192.05 224.655C191.3 224.655 190.38 224.44 190.34 223.721L190.21 220.984L252.14 218.321Z" fill="white"/>
<path opacity="0.2" d="M252.14 218.321L252.27 221.068C252.27 221.768 251.44 222.095 250.69 222.123L212 223.795C211.25 223.795 210.34 223.581 210.31 222.861L210.17 220.115L252.14 218.321Z" fill="black"/>
<path d="M260.54 189.438L255.03 219.33C254.927 219.811 254.656 220.246 254.259 220.567C253.863 220.888 253.364 221.078 252.84 221.105L214.71 222.759C214.471 222.765 214.234 222.718 214.018 222.624C213.801 222.53 213.611 222.389 213.463 222.214C213.314 222.039 213.212 221.835 213.163 221.616C213.113 221.398 213.119 221.172 213.18 220.956L218.7 191.306C218.821 190.851 219.106 190.449 219.506 190.167C219.907 189.884 220.399 189.739 220.9 189.755L259 188.102C260.06 188.055 260.72 188.466 260.54 189.438Z" fill="#263238"/>
<path opacity="0.7" d="M260.54 189.438L255.03 219.33C254.927 219.811 254.656 220.246 254.259 220.567C253.863 220.888 253.364 221.078 252.84 221.105L214.71 222.759C214.471 222.765 214.234 222.718 214.018 222.624C213.801 222.53 213.611 222.389 213.463 222.214C213.314 222.039 213.212 221.835 213.163 221.616C213.113 221.398 213.119 221.172 213.18 220.956L218.7 191.306C218.821 190.851 219.106 190.449 219.506 190.167C219.907 189.884 220.399 189.739 220.9 189.755L259 188.102C260.06 188.055 260.72 188.466 260.54 189.438Z" fill="white"/>
<path opacity="0.4" d="M260.54 189.438L255.03 219.331C254.927 219.812 254.656 220.247 254.259 220.568C253.863 220.889 253.364 221.078 252.84 221.106L216 222.694C215.762 222.698 215.526 222.651 215.31 222.556C215.095 222.46 214.906 222.32 214.758 222.146C214.61 221.971 214.507 221.768 214.457 221.55C214.407 221.332 214.412 221.107 214.47 220.891L220 191.241C220.117 190.786 220.4 190.383 220.799 190.1C221.198 189.817 221.689 189.672 222.19 189.69L259.03 188.102C260.06 188.055 260.72 188.466 260.54 189.438Z" fill="white"/>
<path opacity="0.2" d="M242.48 205.29C242.6 207.831 239.8 210.007 237.66 210.101C235.52 210.194 234.17 208.233 234.66 205.636C235.15 203.039 237.17 201.012 239.25 200.844C238.77 203.403 240.17 205.393 242.25 205.299L242.48 205.29Z" fill="black"/>
<path d="M157.28 167.587C157.28 167.587 159.73 170.838 167.86 171.81C167.86 171.81 171.86 169.334 170.18 166.326C170.18 166.326 168.42 165.812 168.04 163.197C167.861 161.352 168.117 159.493 168.79 157.751C168.88 157.471 168.99 157.172 169.1 156.873L158.82 150.866C158.82 150.866 162.44 163.038 157.28 167.587Z" fill="#EBB376"/>
<path opacity="0.2" d="M161.13 154.351C161.13 154.351 161.68 161.217 168.04 163.197C167.861 161.352 168.117 159.493 168.79 157.751C165 155.901 161.13 154.351 161.13 154.351Z" fill="black"/>
<path d="M174.73 133.286C182.82 135.789 183.99 140.637 181.83 148.615C179.12 158.582 174.36 164.785 164.98 159.572C152.23 152.501 161.29 129.138 174.73 133.286Z" fill="#EBB376"/>
<path d="M176.74 146.579C176.998 147.894 177.421 149.177 178 150.4C177.652 150.639 177.24 150.784 176.809 150.819C176.379 150.853 175.947 150.776 175.56 150.596L176.74 146.579Z" fill="#D58745"/>
<path d="M172 144.43C171.8 145.055 171.27 145.457 170.82 145.364C170.37 145.27 170.18 144.626 170.38 144C170.58 143.374 172.21 143.804 172 144.43Z" fill="#263238"/>
<path d="M171.41 143.86L173.04 143.739C173.04 143.739 171.94 144.655 171.41 143.86Z" fill="#263238"/>
<path d="M170.59 142.926C170.809 142.687 171.109 142.526 171.44 142.468C171.771 142.411 172.113 142.46 172.41 142.608" stroke="#263238" stroke-width="0.25" stroke-linecap="round" stroke-linejoin="round"/>
<path d="M178.37 147.093C178.37 147.093 178.59 148.774 179.18 148.858" stroke="#263238" stroke-width="0.25" stroke-linecap="round" stroke-linejoin="round"/>
<path d="M171.73 145.308C171.73 145.308 170.95 146.531 170.02 146.111" stroke="#263238" stroke-width="0.25" stroke-linecap="round" stroke-linejoin="round"/>
<path d="M180.32 146.663C180.12 147.289 179.59 147.7 179.14 147.597C178.69 147.494 178.5 146.859 178.7 146.233C178.9 145.607 180.53 145.99 180.32 146.663Z" fill="#263238"/>
<path d="M179.72 146.027L181.35 145.906C181.35 145.906 180.25 146.849 179.72 146.027Z" fill="#263238"/>
<path d="M178.9 145.131C179.121 144.891 179.422 144.729 179.754 144.669C180.086 144.61 180.43 144.657 180.73 144.804" stroke="#263238" stroke-width="0.25" stroke-linecap="round" stroke-linejoin="round"/>
<path d="M173.78 139.189C173.165 138.918 172.493 138.782 171.813 138.792C171.134 138.802 170.465 138.957 169.86 139.245" stroke="#263238" stroke-width="0.72468" stroke-linecap="round" stroke-linejoin="round"/>
<path d="M179.77 140.684C180.368 140.726 180.948 140.893 181.467 141.173C181.986 141.453 182.432 141.838 182.77 142.3" stroke="#263238" stroke-width="0.72468" stroke-linecap="round" stroke-linejoin="round"/>
<path d="M161.37 143.3C161.37 143.3 167.37 138.255 168.48 133.285C168.48 133.285 186.68 132.118 182.09 147.569C182.09 147.569 188.44 134.546 174.63 129.95C160.82 125.354 154.15 144.383 159.33 152.268C159.33 152.268 157.65 146.457 161.37 143.3Z" fill="#263238"/>
<path d="M162.13 145.299C162.359 144.4 162.199 143.453 161.684 142.664C161.169 141.874 160.341 141.307 159.38 141.086C156.78 140.572 153.88 145.01 159.71 148.093C160.55 148.532 161.34 147.878 162.13 145.299Z" fill="#EBB376"/>
<path d="M168.05 131.8C170.73 135.658 168.23 140.544 164.89 143.234C161.76 145.756 156.19 145.859 154.52 149.829" stroke="#263238" stroke-width="0.5" stroke-linecap="round" stroke-linejoin="round"/>
<path d="M171.14 153.202C172.14 152.725 175.26 153.435 174.94 154.454C174.62 155.473 166.81 155.304 171.14 153.202Z" fill="#263238"/>
<path d="M187.16 199.778L188.27 195.799C188.498 194.995 189.057 194.308 189.825 193.888C190.593 193.468 191.508 193.349 192.37 193.557L197 194.687L194.2 204.729L189.56 203.646C189.129 203.542 188.724 203.359 188.37 203.107C188.015 202.856 187.717 202.541 187.494 202.181C187.271 201.821 187.126 201.424 187.069 201.011C187.011 200.599 187.042 200.18 187.16 199.778ZM194.56 196.042L191.86 195.379C191.686 195.338 191.505 195.33 191.328 195.355C191.15 195.381 190.98 195.438 190.827 195.525C190.674 195.612 190.54 195.726 190.434 195.861C190.328 195.996 190.252 196.15 190.21 196.313L189.1 200.292C189.057 200.455 189.048 200.624 189.075 200.789C189.102 200.955 189.164 201.114 189.257 201.257C189.35 201.401 189.472 201.525 189.617 201.624C189.761 201.723 189.926 201.794 190.1 201.834L192.8 202.497L194.56 196.042Z" fill="#263238"/>
<g opacity="0.2">
<path opacity="0.2" d="M194.56 196.024L191.86 195.36C191.686 195.32 191.505 195.312 191.328 195.337C191.151 195.362 190.98 195.42 190.827 195.507C190.674 195.594 190.54 195.708 190.434 195.843C190.328 195.978 190.252 196.132 190.21 196.294L189.1 200.274C189.057 200.436 189.048 200.605 189.075 200.771C189.102 200.937 189.164 201.096 189.257 201.239C189.35 201.382 189.472 201.507 189.617 201.606C189.761 201.705 189.926 201.776 190.1 201.815L192.8 202.479L194.56 196.024Z" fill="black"/>
</g>
<path d="M191.981 206.023L204.115 208.98C204.681 209.118 205.26 208.801 205.408 208.272L208.573 196.937C208.721 196.408 208.381 195.867 207.815 195.729L195.681 192.772C195.115 192.634 194.535 192.951 194.388 193.48L191.223 204.815C191.075 205.344 191.414 205.885 191.981 206.023Z" fill="#263238"/>
<path opacity="0.7" d="M202.27 176.48C202.27 176.48 207.13 177.844 206.1 181.711C205.07 185.579 201.68 187.494 205.72 191.595C205.129 191.516 204.563 191.317 204.063 191.012C203.562 190.708 203.139 190.304 202.823 189.831C202.507 189.358 202.305 188.825 202.232 188.272C202.159 187.718 202.216 187.156 202.4 186.625C203.5 182.328 206.4 179.451 201.85 176.536" fill="white"/>
<path opacity="0.2" d="M191.981 206.023L204.115 208.98C204.681 209.118 205.26 208.801 205.408 208.272L208.573 196.937C208.721 196.408 208.381 195.867 207.815 195.729L195.681 192.772C195.115 192.634 194.535 192.951 194.388 193.48L191.223 204.815C191.075 205.344 191.414 205.885 191.981 206.023Z" fill="white"/>
<path d="M165 198.564L178.41 194.828C178.41 194.828 188.8 193.212 191.26 193.697C193.72 194.183 192.58 201.665 191.67 202.273C190.76 202.88 182.02 204.486 181.44 203.87C180.52 203.217 179.511 202.679 178.44 202.273L167.66 205.897L165 198.564Z" fill="#EBB376"/>
<path d="M145 168.727C139.12 168.643 118.94 197.032 124.88 210.83C130.82 224.627 176.45 205.113 176.45 205.113L172.45 196.07C172.45 196.07 145.02 202.46 141.86 199.807C138.7 197.154 146.75 189.204 146.75 189.204C146.75 189.204 149.21 181.45 149.19 177.06C149.17 172.669 145 168.727 145 168.727Z" fill="#407BFF"/>
<path opacity="0.1" d="M176.42 205.112C176.42 205.112 173.04 206.56 168.01 208.382L167.21 208.672C166.71 208.84 166.21 209.027 165.69 209.195C165.22 209.372 164.69 209.54 164.24 209.699C152.63 213.651 135.84 218.107 128.24 214.277C126.709 213.54 125.512 212.313 124.87 210.82C124.13 209.004 123.764 207.074 123.79 205.131C123.79 198.265 127.25 189.839 131.53 182.824L131.83 182.338C133 180.47 134.23 178.667 135.45 177.051C135.6 176.845 135.76 176.649 135.91 176.453C139.52 171.782 143.04 168.699 144.99 168.727C144.99 168.727 149.2 172.707 149.21 177.06C149.22 181.413 146.77 189.204 146.77 189.204C145.694 190.274 144.692 191.407 143.77 192.595C142.751 193.85 141.942 195.242 141.37 196.724C140.97 197.957 141 199.069 141.86 199.797C143.98 201.6 157.04 199.311 165.39 197.611H165.63C169.21 196.873 171.88 196.266 172.37 196.154H172.45L173.87 199.395L176.42 205.112Z" fill="black"/>
<g opacity="0.4">
<path opacity="0.4" d="M129.83 193.642L130.35 194.632L131.52 194.781L130.67 195.557L130.87 196.641L129.83 196.127L128.78 196.641L128.98 195.557L128.14 194.781L129.3 194.632L129.83 193.642Z" fill="white"/>
<path opacity="0.4" d="M154.07 201.208L154.59 202.198L155.76 202.357L154.91 203.123L155.11 204.216L154.07 203.702L153.02 204.216L153.22 203.123L152.38 202.357L153.55 202.198L154.07 201.208Z" fill="white"/>
<path opacity="0.4" d="M168 208.383L167.2 208.672L165.86 208.85L165.68 209.196C165.21 209.373 164.68 209.541 164.23 209.7L163.78 208.841L161.45 208.523L163.14 206.981L162.74 204.814L164.83 205.842L166.92 204.814L166.52 206.991L168 208.383Z" fill="white"/>
<path opacity="0.4" d="M144 191.614L143.82 192.548C142.801 193.804 141.992 195.196 141.42 196.678L140.86 195.613L138.53 195.295L140.22 193.754L139.82 191.577L141.91 192.614L144 191.614Z" fill="white"/>
<path opacity="0.4" d="M134 212.38L128.92 213.071L128.27 214.286C126.739 213.549 125.542 212.322 124.9 210.829C124.16 209.013 123.794 207.083 123.82 205.14L126.66 206.532L131.21 204.309L130.33 209.036L134 212.38Z" fill="white"/>
<path opacity="0.4" d="M173.87 199.312C173.439 199.893 172.863 200.366 172.192 200.692C171.522 201.018 170.776 201.185 170.02 201.181C168.92 201.181 167.855 200.821 167.009 200.164C166.164 199.507 165.591 198.594 165.39 197.584H165.63C165.906 198.159 166.353 198.648 166.919 198.991C167.485 199.334 168.145 199.517 168.82 199.518C169.286 199.518 169.748 199.432 170.178 199.266C170.609 199.099 171.001 198.855 171.33 198.547C171.66 198.239 171.921 197.873 172.1 197.47C172.278 197.068 172.37 196.637 172.37 196.201V196.126H172.45L173.87 199.312Z" fill="white"/>
<path opacity="0.4" d="M142.88 208.625C142.389 208.628 141.911 208.772 141.51 209.037C141.85 208.884 142.233 208.837 142.604 208.902C142.975 208.966 143.314 209.139 143.573 209.396C143.832 209.652 143.997 209.979 144.044 210.328C144.091 210.678 144.019 211.032 143.836 211.341C143.654 211.649 143.371 211.896 143.029 212.044C142.687 212.193 142.304 212.236 141.934 212.168C141.563 212.1 141.226 211.924 140.97 211.665C140.714 211.406 140.553 211.078 140.51 210.728C140.51 210.728 140.51 210.793 140.51 210.83C140.51 211.266 140.648 211.693 140.908 212.055C141.167 212.418 141.536 212.7 141.967 212.867C142.398 213.034 142.873 213.078 143.33 212.993C143.788 212.908 144.209 212.698 144.539 212.389C144.869 212.081 145.094 211.688 145.185 211.26C145.276 210.833 145.229 210.389 145.05 209.987C144.872 209.584 144.569 209.239 144.181 208.997C143.793 208.755 143.337 208.625 142.87 208.625H142.88Z" fill="white"/>
<path opacity="0.4" d="M140.45 180.853C140.45 182.022 139.953 183.144 139.068 183.971C138.182 184.798 136.982 185.262 135.73 185.262C134.478 185.262 133.278 184.798 132.392 183.971C131.507 183.144 131.01 182.022 131.01 180.853C131.01 180.788 131.01 180.722 131.01 180.648C131.119 181.445 131.533 182.179 132.177 182.713C132.82 183.247 133.649 183.546 134.51 183.553C135.399 183.593 136.272 183.319 136.954 182.785C137.637 182.251 138.079 181.496 138.192 180.671C138.306 179.847 138.082 179.012 137.567 178.334C137.051 177.657 136.281 177.185 135.41 177.014C135.56 176.808 135.72 176.612 135.87 176.416C137.103 176.448 138.274 176.93 139.131 177.76C139.987 178.59 140.461 179.701 140.45 180.853Z" fill="white"/>
</g>
<defs>
<filter id="filter0_i" x="252.84" y="30.3887" width="164.73" height="138.714" filterUnits="userSpaceOnUse" color-interpolation-filters="sRGB">
<feFlood flood-opacity="0" result="BackgroundImageFix"/>
<feBlend mode="normal" in="SourceGraphic" in2="BackgroundImageFix" result="shape"/>
<feColorMatrix in="SourceAlpha" type="matrix" values="0 0 0 0 0 0 0 0 0 0 0 0 0 0 0 0 0 0 127 0" result="hardAlpha"/>
<feOffset dx="-1" dy="4"/>
<feGaussianBlur stdDeviation="1.5"/>
<feComposite in2="hardAlpha" operator="arithmetic" k2="-1" k3="1"/>
<feColorMatrix type="matrix" values="0 0 0 0 0 0 0 0 0 0 0 0 0 0 0 0 0 0 0.25 0"/>
<feBlend mode="overlay" in2="shape" result="effect1_innerShadow"/>
</filter>
<filter id="filter1_i" x="388.89" y="27.0908" width="39.98" height="152.017" filterUnits="userSpaceOnUse" color-interpolation-filters="sRGB">
<feFlood flood-opacity="0" result="BackgroundImageFix"/>
<feBlend mode="normal" in="SourceGraphic" in2="BackgroundImageFix" result="shape"/>
<feColorMatrix in="SourceAlpha" type="matrix" values="0 0 0 0 0 0 0 0 0 0 0 0 0 0 0 0 0 0 127 0" result="hardAlpha"/>
<feOffset dx="-1" dy="4"/>
<feGaussianBlur stdDeviation="1.5"/>
<feComposite in2="hardAlpha" operator="arithmetic" k2="-1" k3="1"/>
<feColorMatrix type="matrix" values="0 0 0 0 0 0 0 0 0 0 0 0 0 0 0 0 0 0 0.25 0"/>
<feBlend mode="overlay" in2="shape" result="effect1_innerShadow"/>
</filter>
<filter id="filter2_i" x="241.54" y="27.0908" width="39.99" height="152.017" filterUnits="userSpaceOnUse" color-interpolation-filters="sRGB">
<feFlood flood-opacity="0" result="BackgroundImageFix"/>
<feBlend mode="normal" in="SourceGraphic" in2="BackgroundImageFix" result="shape"/>
<feColorMatrix in="SourceAlpha" type="matrix" values="0 0 0 0 0 0 0 0 0 0 0 0 0 0 0 0 0 0 127 0" result="hardAlpha"/>
<feOffset dx="-1" dy="4"/>
<feGaussianBlur stdDeviation="1.5"/>
<feComposite in2="hardAlpha" operator="arithmetic" k2="-1" k3="1"/>
<feColorMatrix type="matrix" values="0 0 0 0 0 0 0 0 0 0 0 0 0 0 0 0 0 0 0.25 0"/>
<feBlend mode="overlay" in2="shape" result="effect1_innerShadow"/>
</filter>
<filter id="filter3_i" x="59.74" y="111.454" width="62.82" height="51.249" filterUnits="userSpaceOnUse" color-interpolation-filters="sRGB">
<feFlood flood-opacity="0" result="BackgroundImageFix"/>
<feBlend mode="normal" in="SourceGraphic" in2="BackgroundImageFix" result="shape"/>
<feColorMatrix in="SourceAlpha" type="matrix" values="0 0 0 0 0 0 0 0 0 0 0 0 0 0 0 0 0 0 127 0" result="hardAlpha"/>
<feOffset dx="-1" dy="4"/>
<feGaussianBlur stdDeviation="1.5"/>
<feComposite in2="hardAlpha" operator="arithmetic" k2="-1" k3="1"/>
<feColorMatrix type="matrix" values="0 0 0 0 0 0 0 0 0 0 0 0 0 0 0 0 0 0 0.25 0"/>
<feBlend mode="overlay" in2="shape" result="effect1_innerShadow"/>
</filter>
<linearGradient id="paint0_linear" x1="417.628" y1="139.851" x2="249.821" y2="133.138" gradientUnits="userSpaceOnUse">
<stop stop-color="#29B67F"/>
<stop offset="1" stop-color="#3FC7F4"/>
</linearGradient>
<linearGradient id="paint1_linear" x1="428.884" y1="147.283" x2="388.872" y2="146.936" gradientUnits="userSpaceOnUse">
<stop stop-color="#29B67F"/>
<stop offset="1" stop-color="#3FC7F4"/>
</linearGradient>
<linearGradient id="paint2_linear" x1="281.544" y1="147.283" x2="241.522" y2="146.935" gradientUnits="userSpaceOnUse">
<stop stop-color="#29B67F"/>
<stop offset="1" stop-color="#3FC7F4"/>
</linearGradient>
<linearGradient id="paint3_linear" x1="122.582" y1="150.37" x2="59.2356" y2="147.678" gradientUnits="userSpaceOnUse">
<stop stop-color="#29B67F"/>
<stop offset="1" stop-color="#3FC7F4"/>
</linearGradient>
</defs>
</svg>
