<svg width="1424" height="564" viewBox="0 0 1424 564" fill="none" xmlns="http://www.w3.org/2000/svg">
<path d="M604 464C384.402 577.764 151 393 1 563.5L0.5 0L1421.5 3.5L1423.5 473.5C1396.5 448 922.5 299 604 464Z" fill="url(#paint0_linear)"/>
<defs>
<linearGradient id="paint0_linear" x1="1424" y1="454.5" x2="-26.5895" y2="333.029" gradientUnits="userSpaceOnUse">
<stop stop-color="#29B67F"/>
<stop offset="1" stop-color="#3FC7F4"/>
</linearGradient>
</defs>
</svg>
