<svg width="500" height="340" viewBox="0 0 500 340" fill="none" xmlns="http://www.w3.org/2000/svg">
<path d="M500 298.605H0V298.831H500V298.605Z" fill="#E0E0E0"/>
<path d="M119.65 308.189H85.91V308.416H119.65V308.189Z" fill="#E0E0E0"/>
<path d="M78.57 308.298H58.55V308.524H78.57V308.298Z" fill="#E0E0E0"/>
<path d="M303.12 303.448H208.33V303.674H303.12V303.448Z" fill="#E0E0E0"/>
<path d="M167.78 314.606H137.56V314.832H167.78V314.606Z" fill="#E0E0E0"/>
<path d="M413.67 306.561H335V306.787H413.67V306.561Z" fill="#E0E0E0"/>
<path d="M237 258.243H43.91C42.3973 258.241 40.9476 257.696 39.8789 256.727C38.8102 255.758 38.21 254.445 38.21 253.076V7.43785C38.2232 6.07678 38.8292 4.77538 39.8964 3.81632C40.9637 2.85727 42.406 2.31801 43.91 2.31567H237C238.514 2.31567 239.967 2.8601 241.038 3.82918C242.108 4.79826 242.71 6.11261 242.71 7.4831V253.076C242.71 254.446 242.108 255.761 241.038 256.73C239.967 257.699 238.514 258.243 237 258.243ZM43.91 2.49667C42.4636 2.49907 41.0774 3.02071 40.0557 3.9471C39.0339 4.87349 38.46 6.12893 38.46 7.43785V253.076C38.46 254.385 39.0339 255.64 40.0557 256.567C41.0774 257.493 42.4636 258.015 43.91 258.017H237C238.447 258.015 239.834 257.493 240.858 256.567C241.881 255.641 242.457 254.386 242.46 253.076V7.43785C242.457 6.1281 241.881 4.87268 240.858 3.94655C239.834 3.02042 238.447 2.49906 237 2.49667H43.91Z" fill="#E0E0E0"/>
<path d="M453.31 258.243H260.21C258.696 258.241 257.246 257.696 256.175 256.727C255.105 255.759 254.503 254.446 254.5 253.076V7.43785C254.516 6.07596 255.124 4.77457 256.193 3.81576C257.262 2.85695 258.705 2.31798 260.21 2.31567H453.31C454.812 2.32038 456.252 2.8607 457.317 3.8195C458.382 4.77831 458.987 6.07835 459 7.43785V253.076C459 254.443 458.401 255.755 457.335 256.724C456.268 257.692 454.821 258.239 453.31 258.243ZM260.21 2.49667C258.763 2.49906 257.375 3.02042 256.352 3.94655C255.329 4.87268 254.753 6.1281 254.75 7.43785V253.076C254.753 254.386 255.329 255.641 256.352 256.567C257.375 257.493 258.763 258.015 260.21 258.017H453.31C454.757 258.015 456.145 257.493 457.168 256.567C458.191 255.641 458.767 254.386 458.77 253.076V7.43785C458.767 6.1281 458.191 4.87268 457.168 3.94655C456.145 3.02042 454.757 2.49906 453.31 2.49667H260.21Z" fill="#E0E0E0"/>
<path d="M421.22 193.067H395.74V298.606H421.22V193.067Z" fill="#E0E0E0"/>
<path d="M416.38 298.606H421.22V286.144H411.31L416.38 298.606Z" fill="#F0F0F0"/>
<path d="M326 193.067H300.52V298.606H326V193.067Z" fill="#E0E0E0"/>
<path d="M421.22 193.067H321.77V290.959H421.22V193.067Z" fill="#F0F0F0"/>
<path d="M373.12 243.022V275.384H417.47V243.022H373.12Z" fill="#E0E0E0"/>
<path d="M325.53 243.022V275.384H369.88V243.022H325.53Z" fill="#E0E0E0"/>
<path d="M352.09 246.516H343.31C341.425 246.515 339.559 246.167 337.828 245.491C336.096 244.816 334.535 243.828 333.24 242.588H362.16C360.865 243.828 359.304 244.816 357.572 245.491C355.841 246.167 353.975 246.515 352.09 246.516Z" fill="#F0F0F0"/>
<path d="M400.13 246.516H391.36C389.473 246.516 387.606 246.167 385.873 245.492C384.14 244.816 382.577 243.828 381.28 242.588H410.21C408.912 243.827 407.349 244.815 405.616 245.49C403.883 246.166 402.017 246.515 400.13 246.516Z" fill="#F0F0F0"/>
<path d="M373.12 200.434V232.796H417.47V200.434H373.12Z" fill="#E0E0E0"/>
<path d="M325.52 200.443V232.805H369.87V200.443H325.52Z" fill="#E0E0E0"/>
<path d="M352.09 203.928H343.31C341.426 203.927 339.561 203.579 337.83 202.905C336.099 202.231 334.537 201.246 333.24 200.009H362.16C360.863 201.246 359.301 202.231 357.57 202.905C355.839 203.579 353.974 203.927 352.09 203.928Z" fill="#F0F0F0"/>
<path d="M400.13 203.928H391.36C389.474 203.927 387.608 203.579 385.875 202.906C384.142 202.232 382.579 201.246 381.28 200.009H410.21C408.91 201.245 407.347 202.23 405.614 202.904C403.882 203.578 402.016 203.926 400.13 203.928Z" fill="#F0F0F0"/>
<path d="M326.61 298.606H321.77V286.144H331.69L326.61 298.606Z" fill="#F0F0F0"/>
<path d="M346.37 176.533C346.37 180.57 349.47 183.375 345.01 183.375C340.55 183.375 330.23 180.57 330.23 176.533C330.23 174.596 331.08 172.739 332.594 171.369C334.107 169.999 336.16 169.23 338.3 169.23C340.44 169.23 342.493 169.999 344.006 171.369C345.52 172.739 346.37 174.596 346.37 176.533Z" fill="#E0E0E0"/>
<path d="M360.18 180.017C360.18 184.044 363.28 186.859 358.82 186.859C354.36 186.859 344 184.044 344 180.017C344 178.08 344.85 176.223 346.364 174.853C347.877 173.484 349.93 172.714 352.07 172.714C354.21 172.714 356.263 173.484 357.776 174.853C359.29 176.223 360.14 178.08 360.14 180.017H360.18Z" fill="#E0E0E0"/>
<path d="M373.41 177.882C373.41 181.909 376.51 184.723 372.05 184.723C367.59 184.723 357.27 181.909 357.27 177.882C357.27 175.945 358.12 174.087 359.634 172.717C361.147 171.348 363.2 170.578 365.34 170.578C367.48 170.578 369.533 171.348 371.046 172.717C372.56 174.087 373.41 175.945 373.41 177.882Z" fill="#E0E0E0"/>
<path d="M325.29 178.787C325.29 178.787 325.95 193.031 351.24 193.031C376.53 193.031 377.18 178.787 377.18 178.787H325.29Z" fill="#E6E6E6"/>
<path d="M422.28 19.5017H294.05V147.918H422.28V19.5017Z" fill="#E0E0E0"/>
<path d="M436 15.5379H285.75C285.582 15.5367 285.416 15.5655 285.261 15.6228C285.106 15.68 284.964 15.7645 284.845 15.8713C284.726 15.9782 284.632 16.1053 284.568 16.2454C284.503 16.3854 284.47 16.5357 284.47 16.6874C284.47 16.9947 284.605 17.2893 284.845 17.5066C285.085 17.7239 285.41 17.8459 285.75 17.8459H436C436.168 17.846 436.334 17.8159 436.488 17.7576C436.643 17.6993 436.784 17.6138 436.902 17.5061C437.02 17.3984 437.113 17.2706 437.176 17.1301C437.239 16.9896 437.271 16.8391 437.27 16.6874C437.27 16.3825 437.136 16.0901 436.898 15.8746C436.66 15.659 436.337 15.5379 436 15.5379Z" fill="#E0E0E0"/>
<path d="M427.72 19.5017H296.59V147.918H427.72V19.5017Z" fill="#E6E6E6"/>
<path d="M422.28 147.918H294.05V157.067H422.28V147.918Z" fill="#E0E0E0"/>
<path d="M436.78 147.918H305.65V157.067H436.78V147.918Z" fill="#E6E6E6"/>
<path d="M420.1 141.013V26.3884L304.21 26.3884V141.013H420.1Z" fill="#F5F5F5"/>
<path d="M330.52 141.022L375.23 26.3972H396.33L351.62 141.022H330.52Z" fill="#FAFAFA"/>
<path d="M356.15 141.022L400.86 26.3972H409.09L364.38 141.022H356.15Z" fill="#FAFAFA"/>
<path d="M420.1 141.022V26.3972H419.13V141.022H420.1Z" fill="#E0E0E0"/>
<path d="M304.3 13.4744H291.19V124.081H304.3V13.4744Z" fill="#EBEBEB"/>
<path d="M309.4 13.4744H299.19V124.081H309.4V13.4744Z" fill="#E0E0E0"/>
<path d="M317.41 13.4744H304.3V124.081H317.41V13.4744Z" fill="#EBEBEB"/>
<path d="M322.51 13.4744H312.3V124.081H322.51V13.4744Z" fill="#E0E0E0"/>
<path d="M330.52 13.4744H317.41V124.081H330.52V13.4744Z" fill="#EBEBEB"/>
<path d="M415.22 13.4744H407.67V124.081H415.22V13.4744Z" fill="#EBEBEB"/>
<path d="M418.17 13.4744H412.28V124.081H418.17V13.4744Z" fill="#E0E0E0"/>
<path d="M422.77 13.4744H415.22V124.081H422.77V13.4744Z" fill="#EBEBEB"/>
<path d="M425.72 13.4744H419.83V124.081H425.72V13.4744Z" fill="#E0E0E0"/>
<path d="M430.33 13.4744H422.78V124.081H430.33V13.4744Z" fill="#EBEBEB"/>
<path d="M110.37 48.144H96.71V81.8726H110.37V48.144Z" fill="#E6E6E6"/>
<path d="M78.04 89.592L73.7 100.307H78.04L104.6 89.592H78.04Z" fill="#F0F0F0"/>
<path d="M73.7 89.592V100.307L100.27 89.592H73.7Z" fill="#E0E0E0"/>
<path d="M182.2 89.592L177.87 100.307H182.2L208.77 89.592H182.2Z" fill="#F0F0F0"/>
<path d="M177.87 89.592V100.307L204.43 89.592H177.87Z" fill="#E0E0E0"/>
<path d="M54.21 90.0986H83.1V81.9446H54.21V90.0986Z" fill="#E0E0E0"/>
<path d="M226.72 81.9451H83.09V90.0986H226.72V81.9451Z" fill="#F0F0F0"/>
<path d="M133.12 81.8726H99.87L95.76 40.9946H129.01L133.12 81.8726Z" fill="#E0E0E0"/>
<path d="M134.84 81.8726H101.6L97.48 40.9946H130.73L134.84 81.8726Z" fill="#F0F0F0"/>
<path d="M106.14 77.3474L102.94 45.5195H126.19L129.39 77.3474H106.14Z" fill="#FAFAFA"/>
<path d="M148.26 68.5964C148.26 68.5964 148.87 81.8723 172.44 81.8723C196.01 81.8723 196.62 68.5964 196.62 68.5964H148.26Z" fill="#E6E6E6"/>
<path d="M123.76 295.673H87.33C86.5052 295.688 85.6969 295.463 85.0241 295.031C84.3514 294.599 83.8498 293.983 83.5933 293.273C83.3368 292.564 83.3389 291.798 83.5994 291.09C83.8598 290.382 84.3648 289.768 85.04 289.339L85.63 290.062C85.15 290.387 84.795 290.841 84.6151 291.358C84.4352 291.876 84.4395 292.431 84.6274 292.946C84.8153 293.461 85.1773 293.91 85.6622 294.229C86.1472 294.548 86.7306 294.721 87.33 294.723H123.76C125.992 294.721 128.132 293.917 129.711 292.489C131.289 291.06 132.177 289.123 132.18 287.103V189.538C132.183 187.339 133.148 185.231 134.865 183.675C136.582 182.12 138.91 181.244 141.34 181.239H152.24V182.144H141.34C139.176 182.149 137.102 182.93 135.572 184.315C134.043 185.701 133.183 187.579 133.18 189.538V287.148C133.175 289.408 132.181 291.574 130.415 293.171C128.65 294.769 126.257 295.669 123.76 295.673Z" fill="#E0E0E0"/>
<path d="M245.45 183.104H179.84V298.606H245.45V183.104Z" fill="#E0E0E0"/>
<path d="M247.92 183.104H242.51V298.606H247.92V183.104Z" fill="#EBEBEB"/>
<path d="M119.13 191.764L249.59 191.764V183.104H119.13V191.764Z" fill="#EBEBEB"/>
<path d="M118.35 183.104H52.74V298.606H118.35V183.104Z" fill="#E0E0E0"/>
<path d="M120.81 183.104H115.4V298.606H120.81V183.104Z" fill="#EBEBEB"/>
<path d="M98.03 148.623H159.17L168.03 181.293H106.89L98.03 148.623Z" fill="#E0E0E0"/>
<path d="M106.89 181.293L107.14 183.104H168.28L168.04 181.293H106.89Z" fill="#E0E0E0"/>
<path d="M99.92 148.623H161.06L169.92 181.293H108.78L99.92 148.623Z" fill="#F0F0F0"/>
<path d="M110.07 179.8L102.02 150.117H159.76L167.81 179.8H110.07Z" fill="#FAFAFA"/>
<path d="M124.71 181.293L124.95 183.104H192.28L192.03 181.293H124.71Z" fill="#F0F0F0"/>
<path d="M77.07 174.868C77.07 174.868 68.07 160.832 80.56 149.656C80.56 149.656 83.81 151.583 83.76 154.18C83.71 156.778 80.28 157.42 81.01 159.61C81.74 161.8 85.01 163.882 82.87 165.664C80.73 167.447 83.21 169.031 83.07 171.221C82.93 173.411 77.07 174.868 77.07 174.868Z" fill="#F0F0F0"/>
<path d="M77.75 176.153C77.75 176.153 81.4 160.262 65.66 153.221C65.66 153.221 63.24 155.981 64.19 158.415C65.14 160.85 68.63 160.488 68.68 162.75C68.73 165.013 66.38 167.936 69.03 169.022C71.68 170.108 69.87 172.316 70.77 174.343C71.67 176.37 77.75 176.153 77.75 176.153Z" fill="#F0F0F0"/>
<path d="M64 172.633C64 172.633 64.3 183.103 75.77 183.103C87.24 183.103 87.51 172.633 87.51 172.633H64Z" fill="#E0E0E0"/>
<path d="M225.74 298.606H223.46L216.93 269.502L215.79 264.407L208.67 232.733H181.38L166.59 298.606H164.31L179.38 231.475C179.429 231.246 179.565 231.041 179.764 230.894C179.963 230.746 180.213 230.667 180.47 230.669H209.58C209.837 230.667 210.087 230.746 210.286 230.894C210.485 231.041 210.621 231.246 210.67 231.475L216.92 259.33L218.07 264.425L225.74 298.606Z" fill="#EBEBEB"/>
<path d="M269.55 298.606H267.26L252.47 232.696H225.19L218.07 264.425L216.93 269.502L210.4 298.606H208.12L215.79 264.407L216.92 259.33L223.18 231.475C223.229 231.246 223.365 231.041 223.564 230.894C223.763 230.746 224.013 230.667 224.27 230.669H253.38C253.638 230.668 253.888 230.748 254.088 230.895C254.289 231.042 254.427 231.246 254.48 231.475L269.55 298.606Z" fill="#EBEBEB"/>
<path d="M202.29 231.682H252.43C257.03 231.679 261.445 230.044 264.73 227.129C268.014 224.215 269.906 220.252 270 216.09L271.87 147.13C271.897 145.593 271.585 144.066 270.954 142.639C270.323 141.212 269.385 139.912 268.194 138.816C267.003 137.719 265.583 136.848 264.017 136.253C262.45 135.657 260.769 135.35 259.07 135.347H227.64C224.494 135.349 221.458 136.397 219.111 138.293C216.763 140.189 215.268 142.799 214.91 145.628L202.29 231.682Z" fill="#E6E6E6"/>
<path d="M229.63 231.683H176.2C175.537 231.683 174.901 231.444 174.432 231.02C173.963 230.596 173.7 230.02 173.7 229.42V229.203C173.7 227.554 174.424 225.973 175.712 224.807C177.001 223.641 178.748 222.986 180.57 222.986H229.63V231.683Z" fill="#E6E6E6"/>
<path d="M250 339.474C357.082 339.474 443.89 334.888 443.89 329.23C443.89 323.572 357.082 318.986 250 318.986C142.917 318.986 56.11 323.572 56.11 329.23C56.11 334.888 142.917 339.474 250 339.474Z" fill="#F5F5F5"/>
<path d="M276.44 107.13L277.09 107.628C277.33 107.818 277.6 107.999 277.86 108.18C278.38 108.551 278.86 108.922 279.46 109.275C280.54 109.99 281.69 110.641 282.84 111.293C285.16 112.587 287.591 113.71 290.11 114.651C292.618 115.618 295.202 116.416 297.84 117.04C298.5 117.203 299.18 117.311 299.84 117.447L300.84 117.646C301.05 117.646 300.84 117.646 300.84 117.691C300.704 117.72 300.575 117.772 300.46 117.845C300.37 117.927 300.37 117.927 300.41 117.908C300.608 117.643 300.763 117.354 300.87 117.049C301.225 116.005 301.443 114.926 301.52 113.836C301.64 112.651 301.68 111.402 301.67 110.144C301.67 107.619 301.45 105.04 301.23 102.451C301.01 99.8633 300.66 97.266 300.29 94.6597C299.92 92.0533 299.51 89.447 299.08 86.8769L302.84 86.0986C304.496 91.2638 305.832 96.5088 306.84 101.809C307.364 104.504 307.728 107.223 307.93 109.954C308.047 111.363 308.084 112.776 308.04 114.189C308.026 115.748 307.808 117.301 307.39 118.813C307.108 119.781 306.648 120.699 306.03 121.528C305.598 122.094 305.06 122.587 304.44 122.985C303.728 123.445 302.912 123.755 302.05 123.89C301.309 124.003 300.551 124.003 299.81 123.89L298.66 123.718C297.89 123.601 297.11 123.51 296.35 123.356C293.284 122.805 290.273 122.024 287.35 121.022C284.428 120.007 281.602 118.778 278.9 117.347C277.55 116.614 276.23 115.845 274.95 115.003C274.31 114.587 273.68 114.098 273.05 113.7C272.74 113.465 272.43 113.239 272.12 112.985C271.81 112.732 271.52 112.524 271.12 112.18L276.44 107.13Z" fill="#E4897B"/>
<path d="M265.57 103.013C276.57 101.664 285.41 109.691 285.41 109.691L275.35 123.737C275.35 123.737 264.57 117.492 262.67 113.239C260.71 108.813 259.94 103.673 265.57 103.013Z" fill="#407BFF"/>
<path opacity="0.6" d="M265.57 103.013C276.57 101.664 285.41 109.691 285.41 109.691L275.35 123.737C275.35 123.737 264.57 117.492 262.67 113.239C260.71 108.813 259.94 103.673 265.57 103.013Z" fill="#FAFAFA"/>
<path d="M299.17 88.0989L295.52 81.4745L305.09 81.4021C305.09 81.4021 305.28 86.0265 302.86 88.6418L299.17 88.0989Z" fill="#E4897B"/>
<path d="M297.22 74.3521L304.34 75.5014L305.09 81.402L295.52 81.4744L297.22 74.3521Z" fill="#E4897B"/>
<path d="M226.67 321.655L235.63 322.434L241.83 303.393L232.87 302.606L226.67 321.655Z" fill="#E4897B"/>
<path d="M169.7 293.492L176.34 299.139L190.68 284.877L184.04 279.23L169.7 293.492Z" fill="#E4897B"/>
<path d="M179.41 296.433L174.41 288.289C174.325 288.149 174.187 288.042 174.022 287.987C173.856 287.932 173.675 287.933 173.51 287.99L165.82 290.633C165.63 290.706 165.458 290.816 165.318 290.953C165.177 291.091 165.069 291.253 165.003 291.431C164.936 291.608 164.911 291.796 164.929 291.983C164.948 292.17 165.009 292.351 165.11 292.515C166.9 295.32 167.93 296.596 170.11 300.171C171.46 302.379 174.11 307.411 175.96 310.47C177.81 313.528 181.24 311.999 180.77 310.587C178.63 304.252 179.04 300.696 179.64 297.918C179.76 297.414 179.679 296.888 179.41 296.433Z" fill="#263238"/>
<path d="M236.68 319.963H225.82C225.626 319.965 225.437 320.024 225.284 320.132C225.13 320.24 225.02 320.39 224.97 320.56L222.6 328.334C222.544 328.518 222.536 328.711 222.577 328.898C222.618 329.086 222.707 329.262 222.836 329.413C222.965 329.564 223.131 329.685 223.321 329.768C223.51 329.851 223.719 329.893 223.93 329.891C227.76 329.891 229.57 329.891 234.35 329.891H248.94C252.94 329.891 253.74 326.271 252.1 325.927C244.74 324.461 240.49 322.424 238.22 320.497C237.799 320.15 237.249 319.959 236.68 319.963Z" fill="#263238"/>
<path d="M241.83 303.393L238.63 313.212H229.41L232.86 302.615L241.83 303.393Z" fill="#CE6F64"/>
<path d="M184.03 279.239L190.68 284.877L183.28 292.226L176.64 286.588L184.03 279.239Z" fill="#CE6F64"/>
<path d="M276.41 97.3929C276.34 90.8137 269.76 88.515 269.76 88.515C269.76 88.515 277.99 74.4155 273.76 65.058C269.53 55.7006 255.59 54.0535 251.17 58.4246C243.4 58.1259 240.93 68.2255 240.93 68.2255C240.93 68.2255 234.43 69.2119 232.68 73.4924C230.93 77.773 236.26 82.5965 236.26 82.5965C236.26 82.5965 228.84 83.5015 226.11 88.6689C223.38 93.8363 225.06 100.696 233.26 106.615C245.18 115.212 267.09 104.425 267.09 104.425C267.09 104.425 276.49 104.958 276.41 97.3929Z" fill="#263238"/>
<path d="M275 103.936C275 103.936 279 105.52 265.64 153.275L228.64 150.37C230.56 136.796 231.39 128.361 226.86 99.8001C232.139 99.2351 237.456 99.0204 242.77 99.1576C248.404 99.2344 254.025 99.6729 259.59 100.47C264.787 101.391 269.93 102.548 275 103.936Z" fill="#407BFF"/>
<path opacity="0.6" d="M275 103.936C275 103.936 279 105.52 265.64 153.275L228.64 150.37C230.56 136.796 231.39 128.361 226.86 99.8001C232.139 99.2351 237.456 99.0204 242.77 99.1576C248.404 99.2344 254.025 99.6729 259.59 100.47C264.787 101.391 269.93 102.548 275 103.936Z" fill="#FAFAFA"/>
<path d="M265.41 101.601C263.49 101.185 261.41 100.787 259.51 100.47C253.945 99.6702 248.324 99.2286 242.69 99.1488C240.76 99.0855 238.83 99.0855 237.02 99.1488L238.26 101.285C238.48 101.665 243.76 110.579 253.79 115.637L256.55 117.031L259.12 115.375C265.6 111.185 266.56 105.737 265.41 101.601Z" fill="#FAFAFA"/>
<path d="M246 82.1438C246.59 87.1302 246.79 96.1891 242.7 99.1574C242.7 99.1574 247.38 107.203 256.24 111.664C264.08 106.615 259.52 100.47 259.52 100.47C253.61 98.6597 254.15 94.6597 255.52 90.9312L246 82.1438Z" fill="#E4897B"/>
<path d="M249.89 85.7275L255.55 90.9312C255.205 91.7959 254.944 92.6861 254.77 93.5918C252.5 93.1122 249.2 90.9674 249.16 88.7592C249.205 87.7178 249.453 86.6917 249.89 85.7275Z" fill="#CE6F64"/>
<path d="M245.76 70.8317C244.67 78.9765 244.02 82.4245 247.69 87.3204C253.21 94.6688 264.53 94.0896 268.28 86.4154C271.66 79.4833 272.87 67.3023 264.78 62.6416C263.006 61.6084 260.97 61.0022 258.865 60.8803C256.76 60.7584 254.655 61.1249 252.751 61.9451C250.846 62.7654 249.204 64.0121 247.981 65.5672C246.757 67.1223 245.993 68.9344 245.76 70.8317Z" fill="#E4897B"/>
<path d="M252.74 60.7954C259.69 62.4244 252.82 81.5555 241.74 76.008C241.74 76.008 242.24 67.9266 245.32 64.4967C247.183 62.4534 249.836 61.1297 252.74 60.7954Z" fill="#263238"/>
<path d="M252 61.8545C255 66.2707 277.25 74.6417 269.77 65.1395C262.29 55.6374 252 61.8545 252 61.8545Z" fill="#263238"/>
<path d="M242.9 77.8813C242.775 79.468 243.347 81.0352 244.49 82.2433C246.03 83.827 248.06 82.8677 248.7 80.9492C249.27 79.2297 249.16 76.3338 247.11 75.4469C246.658 75.2663 246.163 75.1898 245.67 75.224C245.177 75.2583 244.701 75.4023 244.284 75.6432C243.868 75.8841 243.523 76.2145 243.282 76.605C243.04 76.9955 242.909 77.4339 242.9 77.8813Z" fill="#E4897B"/>
<path d="M265.6 153.275C265.6 153.275 278.13 203.447 269.77 238.813C264.17 262.506 243.96 310.361 243.96 310.361L228.16 309.999C228.16 309.999 243.45 259.773 246.62 240.026C252.03 206.234 238.48 151.148 238.48 151.148L265.6 153.275Z" fill="#263238"/>
<path d="M251.15 163.402L243.25 174.678C245.631 188.049 247.14 201.536 247.77 215.067C258.88 197.067 253.62 172.932 251.15 163.402Z" fill="#263238"/>
<path d="M245.26 311.103L225.74 310.651L226.87 305.23L248.18 306.144L245.26 311.103Z" fill="#407BFF"/>
<path opacity="0.6" d="M245.26 311.103L225.74 310.651L226.87 305.23L248.18 306.144L245.26 311.103Z" fill="#FAFAFA"/>
<path d="M257.5 152.732C257.5 152.732 250.15 205.945 234.21 234.995C221.34 258.425 187 291.909 187 291.909L178.22 283.719C178.22 283.719 201.42 247.42 210.99 231.827C234.45 193.61 215.27 164.452 228.57 150.379L257.5 152.732Z" fill="#263238"/>
<path d="M187.88 292.958L176.54 282.958L180.31 278.325L192.66 289.882L187.88 292.958Z" fill="#407BFF"/>
<path opacity="0.6" d="M187.88 292.958L176.54 282.958L180.31 278.325L192.66 289.882L187.88 292.958Z" fill="#FAFAFA"/>
<path d="M228.19 148.361L226.24 151.23C226.08 151.457 226.37 151.719 226.79 151.746L265.64 154.787C265.98 154.787 266.27 154.688 266.31 154.498L266.93 151.529C266.93 151.321 266.7 151.122 266.33 151.095L228.82 148.153C228.704 148.135 228.585 148.145 228.475 148.182C228.364 148.218 228.266 148.28 228.19 148.361Z" fill="#407BFF"/>
<path opacity="0.3" d="M228.19 148.361L226.24 151.23C226.08 151.457 226.37 151.719 226.79 151.746L265.64 154.787C265.98 154.787 266.27 154.688 266.31 154.498L266.93 151.529C266.93 151.321 266.7 151.122 266.33 151.095L228.82 148.153C228.704 148.135 228.585 148.145 228.475 148.182C228.364 148.218 228.266 148.28 228.19 148.361Z" fill="black"/>
<path d="M232.87 152.543L231.87 152.462C231.67 152.462 231.53 152.344 231.55 152.226L232.4 148.37C232.4 148.253 232.61 148.171 232.81 148.189L233.81 148.271C234.01 148.271 234.15 148.388 234.13 148.506L233.29 152.362C233.25 152.489 233.07 152.543 232.87 152.543Z" fill="#263238"/>
<path d="M262.79 154.896L261.79 154.814C261.59 154.814 261.45 154.697 261.47 154.579L262.32 150.714C262.32 150.605 262.53 150.524 262.73 150.542L263.73 150.623C263.93 150.623 264.07 150.741 264.05 150.85L263.21 154.715C263.17 154.832 263 154.905 262.79 154.896Z" fill="#263238"/>
<path d="M247.83 153.719L246.83 153.647C246.63 153.647 246.49 153.52 246.51 153.412L247.36 149.547C247.36 149.438 247.57 149.357 247.77 149.375L248.77 149.447C248.97 149.447 249.11 149.574 249.09 149.683L248.25 153.547C248.21 153.656 248 153.738 247.83 153.719Z" fill="#263238"/>
<path d="M258.83 75.3298C258.7 75.9814 258.98 76.5788 259.45 76.6603C259.92 76.7417 260.45 76.2711 260.55 75.6104C260.65 74.9496 260.41 74.3523 259.93 74.2799C259.45 74.2074 259 74.7143 258.83 75.3298Z" fill="#263238"/>
<path d="M267 76.687C266.87 77.3386 267.15 77.936 267.62 78.0174C268.09 78.0989 268.62 77.6283 268.72 76.9676C268.82 76.3069 268.58 75.7095 268.1 75.6371C267.62 75.5647 267.18 76.0263 267 76.687Z" fill="#263238"/>
<path d="M267.93 75.619L269.76 75.4563C269.76 75.4563 268.62 76.5233 267.93 75.619Z" fill="#263238"/>
<path d="M264.64 77.429C264.99 79.0353 265.578 80.5912 266.39 82.0543C265.97 82.2314 265.513 82.3232 265.05 82.3232C264.587 82.3232 264.13 82.2314 263.71 82.0543L264.64 77.429Z" fill="#DE5753"/>
<path d="M260.67 84.2261C259.694 84.0892 258.769 83.7424 257.972 83.2147C257.175 82.687 256.53 81.9939 256.09 81.1936C256.074 81.1539 256.075 81.11 256.093 81.0711C256.112 81.0322 256.147 81.0015 256.19 80.9854C256.211 80.9764 256.234 80.9715 256.257 80.9708C256.28 80.9701 256.303 80.9737 256.324 80.9813C256.346 80.9889 256.366 81.0004 256.382 81.0151C256.398 81.0299 256.411 81.0474 256.42 81.0668C256.841 81.8129 257.451 82.4583 258.2 82.9506C258.949 83.443 259.816 83.7683 260.73 83.9002C260.778 83.9002 260.824 83.9174 260.857 83.9479C260.891 83.9785 260.91 84.0199 260.91 84.0631C260.91 84.1064 260.891 84.1478 260.857 84.1784C260.824 84.2089 260.778 84.2261 260.73 84.2261H260.67Z" fill="#263238"/>
<path d="M256.88 70.1892C256.804 70.1905 256.729 70.1697 256.666 70.1299C256.604 70.0902 256.557 70.0334 256.532 69.9679C256.508 69.9024 256.507 69.8315 256.53 69.7655C256.553 69.6996 256.598 69.6419 256.66 69.601C257.187 69.217 257.808 68.9533 258.471 68.832C259.134 68.7108 259.82 68.7355 260.47 68.9042C260.515 68.9184 260.556 68.9405 260.591 68.9691C260.626 68.9977 260.655 69.0324 260.675 69.071C260.696 69.1097 260.708 69.1516 260.71 69.1944C260.713 69.2372 260.706 69.2801 260.69 69.3205C260.674 69.3609 260.65 69.3981 260.618 69.43C260.587 69.462 260.548 69.4879 260.506 69.5064C260.463 69.5249 260.417 69.5356 260.369 69.5378C260.322 69.5401 260.275 69.5339 260.23 69.5195C259.693 69.3861 259.129 69.3707 258.585 69.4745C258.04 69.5784 257.531 69.7986 257.1 70.1168C257.036 70.1602 256.96 70.1854 256.88 70.1892Z" fill="#263238"/>
<path d="M271.68 74.19C271.627 74.1898 271.574 74.1792 271.526 74.1589C271.477 74.1386 271.435 74.1091 271.4 74.0723C271.059 73.6735 270.618 73.3533 270.114 73.1377C269.61 72.9222 269.057 72.8174 268.5 72.832C268.405 72.8397 268.31 72.8139 268.236 72.7599C268.161 72.7059 268.113 72.6279 268.1 72.5422C268.095 72.4999 268.099 72.457 268.112 72.416C268.125 72.3751 268.147 72.337 268.177 72.304C268.207 72.271 268.244 72.2439 268.286 72.2241C268.327 72.2044 268.373 72.1925 268.42 72.1891C269.097 72.1576 269.772 72.2744 270.389 72.5298C271.005 72.7851 271.544 73.1714 271.96 73.6559C272.025 73.7181 272.062 73.8008 272.062 73.8867C272.062 73.9727 272.025 74.0553 271.96 74.1176C271.88 74.1727 271.78 74.1986 271.68 74.19Z" fill="#263238"/>
<path d="M229.59 111.818C228.086 114.519 226.417 117.141 224.59 119.674C222.79 122.171 220.89 124.615 218.84 126.968C216.769 129.329 214.548 131.58 212.19 133.71C210.97 134.75 209.78 135.809 208.47 136.787L207.47 137.529L207.23 137.71L206.91 137.936C206.699 138.092 206.479 138.237 206.25 138.37C205.341 138.934 204.352 139.385 203.31 139.71C201.348 140.289 199.274 140.495 197.22 140.316C195.38 140.149 193.567 139.788 191.82 139.239C188.583 138.217 185.497 136.84 182.63 135.14C177.114 131.901 172.033 128.093 167.49 123.791L170.15 121.266C172.54 123.004 175.06 124.732 177.64 126.298C180.167 127.9 182.798 129.363 185.52 130.678C188.111 131.966 190.847 133.001 193.68 133.764C196.38 134.443 199.09 134.56 200.96 133.855C202.017 133.439 202.961 132.821 203.73 132.045C204.84 131.14 205.87 130.135 206.92 129.158C208.97 127.14 210.87 124.977 212.74 122.823C214.61 120.669 216.3 118.298 217.94 115.945C218.77 114.769 219.56 113.574 220.34 112.38C221.12 111.185 221.87 109.927 222.52 108.805L229.59 111.818Z" fill="#E4897B"/>
<path d="M172.68 122.343L169.12 115.682L163.2 122.488C163.2 122.488 167.12 125.447 170.93 125.338L172.68 122.343Z" fill="#E4897B"/>
<path d="M165.23 113.737L161.88 119.538L163.2 122.488L169.12 115.682L165.23 113.737Z" fill="#E4897B"/>
<path d="M226.78 99.8002C222.24 100.524 215.87 112.316 215.87 112.316L228.34 122.515C228.34 122.515 236.42 112.696 235.94 107.339C235.53 102.769 232.56 98.8771 226.78 99.8002Z" fill="#407BFF"/>
<path opacity="0.6" d="M226.78 99.8002C222.24 100.524 215.87 112.316 215.87 112.316L228.34 122.515C228.34 122.515 236.42 112.696 235.94 107.339C235.53 102.769 232.56 98.8771 226.78 99.8002Z" fill="#FAFAFA"/>
<path d="M181.16 300.805C181.041 300.806 180.922 300.788 180.81 300.751C179.72 300.425 179.01 298.606 178.68 297.547C178.67 297.516 178.671 297.483 178.681 297.453C178.692 297.422 178.712 297.395 178.74 297.375C178.77 297.359 178.805 297.351 178.84 297.351C178.875 297.351 178.91 297.359 178.94 297.375C179.27 297.529 182.17 298.941 182.26 299.973C182.274 300.086 182.252 300.2 182.197 300.303C182.142 300.405 182.057 300.491 181.95 300.552C181.725 300.713 181.447 300.802 181.16 300.805ZM179.16 297.837C179.66 299.294 180.31 300.253 180.93 300.443C181.071 300.482 181.221 300.486 181.365 300.456C181.509 300.426 181.642 300.362 181.75 300.271C181.805 300.242 181.849 300.199 181.877 300.148C181.906 300.097 181.917 300.039 181.91 299.982C181.85 299.348 180.15 298.344 179.15 297.837H179.16Z" fill="#407BFF"/>
<path d="M181.61 298.243C180.621 298.24 179.647 298.033 178.76 297.637C178.732 297.625 178.709 297.605 178.693 297.581C178.677 297.557 178.669 297.529 178.67 297.501C178.67 297.471 178.68 297.442 178.697 297.416C178.715 297.391 178.74 297.37 178.77 297.357C178.86 297.357 181.16 296.171 182.4 296.57C182.552 296.614 182.692 296.69 182.808 296.79C182.924 296.89 183.013 297.013 183.07 297.149C183.149 297.279 183.176 297.43 183.147 297.577C183.118 297.723 183.034 297.856 182.91 297.954C182.523 298.176 182.067 298.278 181.61 298.243ZM179.25 297.501C180.25 297.881 182.14 298.117 182.68 297.7C182.77 297.637 182.85 297.519 182.74 297.266C182.7 297.174 182.638 297.092 182.559 297.024C182.479 296.957 182.384 296.907 182.28 296.877C181.43 296.606 179.9 297.212 179.25 297.501Z" fill="#407BFF"/>
<path d="M241.5 321.556C240.49 321.535 239.484 321.42 238.5 321.212C238.463 321.205 238.429 321.187 238.404 321.161C238.379 321.135 238.363 321.102 238.36 321.067C238.355 321.034 238.362 321 238.38 320.971C238.398 320.941 238.426 320.918 238.46 320.905C238.91 320.714 242.84 319.094 243.84 319.673C243.929 319.729 244 319.806 244.046 319.895C244.092 319.984 244.11 320.082 244.1 320.18C244.088 320.358 244.034 320.531 243.94 320.687C243.847 320.843 243.717 320.979 243.56 321.086C242.941 321.427 242.223 321.591 241.5 321.556ZM239.16 320.995C240.33 321.194 242.49 321.448 243.38 320.841C243.498 320.762 243.594 320.659 243.664 320.542C243.733 320.425 243.772 320.295 243.78 320.162C243.786 320.121 243.78 320.08 243.762 320.041C243.745 320.003 243.716 319.97 243.68 319.945C243.12 319.601 240.79 320.343 239.16 320.995Z" fill="#407BFF"/>
<path d="M238.58 321.213C238.541 321.227 238.498 321.227 238.46 321.213C238.435 321.193 238.416 321.167 238.406 321.139C238.395 321.11 238.393 321.079 238.4 321.05C238.4 320.905 239.34 317.384 241.47 317.61C242.01 317.665 242.15 317.909 242.18 318.099C242.32 319.004 239.83 320.815 238.65 321.24L238.58 321.213ZM241.28 317.891C239.91 317.891 239.12 319.937 238.85 320.76C240.14 320.145 241.91 318.678 241.85 318.108C241.85 318.063 241.85 317.936 241.46 317.9L241.28 317.891Z" fill="#407BFF"/>
<path d="M259.72 74.2794L261.55 74.1077C261.55 74.1077 260.41 75.1925 259.72 74.2794Z" fill="#263238"/>
<g filter="url(#filter0_i)">
<path d="M192.175 23.7802C187.894 23.1817 183.911 26.0936 183.182 30.3552L156.57 186.043C155.809 190.492 158.877 194.689 163.347 195.314L312.414 216.156C316.696 216.755 320.679 213.843 321.408 209.581L348.021 53.8851C348.781 49.436 345.712 45.239 341.242 44.6143L192.175 23.7802ZM252.25 120.235C244.68 119.175 237.628 116.107 231.986 111.419C226.343 106.731 222.364 100.633 220.552 93.8979C218.739 87.1627 219.175 80.0923 221.804 73.5813C224.433 67.0703 229.136 61.4111 235.32 57.3199C241.504 53.2287 248.889 50.8892 256.542 50.5974C264.195 50.3056 271.772 52.0746 278.314 55.6806C284.856 59.2866 290.069 64.5676 293.294 70.8554C296.519 77.1432 297.61 84.1554 296.43 91.0047C294.849 100.181 289.308 108.413 281.024 113.894C272.74 119.375 262.391 121.656 252.25 120.235Z" fill="url(#paint0_linear)" fill-opacity="0.5"/>
</g>
<g style="mix-blend-mode:multiply" opacity="0.3">
<path d="M315.12 210.723H314.87L149.7 187.565V187.339L179.09 15.6733H179.33L344.5 38.8317V39.058L315.12 210.723ZM150.27 187.194L314.7 210.208L343.93 39.1666L179.5 16.1892L150.27 187.194Z" fill="#407BFF"/>
</g>
<path d="M258.19 122.008C256.124 122.006 254.061 121.861 252.02 121.573C241.761 120.125 232.521 115.137 226.238 107.656C219.955 100.175 217.118 90.7832 218.321 81.4502C219.525 72.1172 224.677 63.5689 232.694 57.5987C240.712 51.6286 250.974 48.7008 261.325 49.4296C271.677 50.1584 281.315 54.4872 288.216 61.5076C295.117 68.5281 298.746 77.6946 298.34 87.0838C297.934 96.473 293.526 105.355 286.04 111.867C278.555 118.378 268.573 122.013 258.19 122.008ZM252.48 118.895C259.753 119.912 267.195 118.954 273.866 116.143C280.537 113.333 286.138 108.795 289.96 103.104C293.781 97.4129 295.653 90.8242 295.337 84.1708C295.021 77.5173 292.533 71.098 288.186 65.7244C283.839 60.3509 277.83 56.2643 270.917 53.9815C264.004 51.6986 256.498 51.322 249.349 52.8993C242.199 54.4765 235.727 57.9368 230.751 62.8426C225.774 67.7483 222.517 73.8793 221.39 80.4604C219.893 89.2866 222.325 98.2899 228.153 105.495C233.982 112.701 242.73 117.519 252.48 118.895Z" fill="#FAFAFA"/>
<path d="M220.393 130.843L184.065 125.759L182.803 133.146L219.131 138.23L220.393 130.843Z" fill="#407BFF"/>
<path opacity="0.6" d="M220.393 130.843L184.065 125.759L182.803 133.146L219.131 138.23L220.393 130.843Z" fill="#FAFAFA"/>
<path d="M249.756 134.953L225.179 131.514L223.916 138.901L248.494 142.34L249.756 134.953Z" fill="#407BFF"/>
<path opacity="0.6" d="M249.756 134.953L225.179 131.514L223.916 138.901L248.494 142.34L249.756 134.953Z" fill="#FAFAFA"/>
<path d="M312.87 159.111L181.501 140.728L180.239 148.116L311.608 166.499L312.87 159.111Z" fill="#FAFAFA"/>
<path d="M245.213 165.319L179.774 156.346L178.535 163.747L243.974 172.719L245.213 165.319Z" fill="#FAFAFA"/>
<path d="M299.024 173.257L255.323 167.142L254.061 174.529L297.762 180.645L299.024 173.257Z" fill="#FAFAFA"/>
<path d="M281.16 186.846L176.138 172.149L174.876 179.537L279.898 194.233L281.16 186.846Z" fill="#FAFAFA"/>
<path d="M351.17 217.23H350.17C350.174 214.984 349.868 212.747 349.26 210.569L350.26 210.352C350.878 212.602 351.184 214.912 351.17 217.23ZM347.25 205.538C345.049 201.37 341.724 197.772 337.58 195.076L338.16 194.343C342.439 197.124 345.878 200.833 348.16 205.13L347.25 205.538Z" fill="#407BFF"/>
<path opacity="0.6" d="M351.17 217.23H350.17C350.174 214.984 349.868 212.747 349.26 210.569L350.26 210.352C350.878 212.602 351.184 214.912 351.17 217.23ZM347.25 205.538C345.049 201.37 341.724 197.772 337.58 195.076L338.16 194.343C342.439 197.124 345.878 200.833 348.16 205.13L347.25 205.538Z" fill="#FAFAFA"/>
<path d="M320.1 192.28C314.647 192.28 309.317 193.743 304.783 196.485C300.249 199.226 296.715 203.123 294.629 207.682C292.542 212.241 291.996 217.258 293.06 222.098C294.124 226.938 296.749 231.383 300.605 234.873C304.461 238.362 309.373 240.738 314.721 241.701C320.069 242.664 325.613 242.17 330.651 240.281C335.688 238.393 339.994 235.195 343.024 231.092C346.053 226.989 347.67 222.165 347.67 217.23C347.67 210.613 344.765 204.267 339.595 199.588C334.425 194.909 327.412 192.28 320.1 192.28ZM320.1 238.95C315.353 238.95 310.713 237.676 306.766 235.289C302.82 232.903 299.743 229.511 297.927 225.542C296.11 221.573 295.635 217.206 296.561 212.993C297.487 208.78 299.773 204.91 303.129 201.872C306.486 198.835 310.762 196.766 315.418 195.928C320.073 195.09 324.899 195.52 329.284 197.164C333.67 198.808 337.418 201.592 340.055 205.164C342.692 208.735 344.1 212.935 344.1 217.23C344.1 222.991 341.571 228.515 337.071 232.588C332.57 236.661 326.465 238.95 320.1 238.95Z" fill="#407BFF"/>
<path opacity="0.6" d="M320.1 192.28C314.647 192.28 309.317 193.743 304.783 196.485C300.249 199.226 296.715 203.123 294.629 207.682C292.542 212.241 291.996 217.258 293.06 222.098C294.124 226.938 296.749 231.383 300.605 234.873C304.461 238.362 309.373 240.738 314.721 241.701C320.069 242.664 325.613 242.17 330.651 240.281C335.688 238.393 339.994 235.195 343.024 231.092C346.053 226.989 347.67 222.165 347.67 217.23C347.67 210.613 344.765 204.267 339.595 199.588C334.425 194.909 327.412 192.28 320.1 192.28ZM320.1 238.95C315.353 238.95 310.713 237.676 306.766 235.289C302.82 232.903 299.743 229.511 297.927 225.542C296.11 221.573 295.635 217.206 296.561 212.993C297.487 208.78 299.773 204.91 303.129 201.872C306.486 198.835 310.762 196.766 315.418 195.928C320.073 195.09 324.899 195.52 329.284 197.164C333.67 198.808 337.418 201.592 340.055 205.164C342.692 208.735 344.1 212.935 344.1 217.23C344.1 222.991 341.571 228.515 337.071 232.588C332.57 236.661 326.465 238.95 320.1 238.95Z" fill="#FAFAFA"/>
<path d="M320.1 238.94C333.349 238.94 344.09 229.22 344.09 217.23C344.09 205.24 333.349 195.52 320.1 195.52C306.851 195.52 296.11 205.24 296.11 217.23C296.11 229.22 306.851 238.94 320.1 238.94Z" fill="#39B7FD"/>
<path opacity="0.2" d="M319.99 238.603C333.239 238.603 343.98 228.883 343.98 216.892C343.98 204.902 333.239 195.182 319.99 195.182C306.741 195.182 296 204.902 296 216.892C296 228.883 306.741 238.603 319.99 238.603Z" fill="black"/>
<path d="M316.37 230.968L302.29 218.225L305.83 215.031L316.37 224.569L334.38 208.271L337.91 211.474L316.37 230.968Z" fill="#FAFAFA"/>
<defs>
<filter id="filter0_i" x="155.454" y="23.7024" width="192.683" height="195.532" filterUnits="userSpaceOnUse" color-interpolation-filters="sRGB">
<feFlood flood-opacity="0" result="BackgroundImageFix"/>
<feBlend mode="normal" in="SourceGraphic" in2="BackgroundImageFix" result="shape"/>
<feColorMatrix in="SourceAlpha" type="matrix" values="0 0 0 0 0 0 0 0 0 0 0 0 0 0 0 0 0 0 127 0" result="hardAlpha"/>
<feOffset dx="-1" dy="4"/>
<feGaussianBlur stdDeviation="1.5"/>
<feComposite in2="hardAlpha" operator="arithmetic" k2="-1" k3="1"/>
<feColorMatrix type="matrix" values="0 0 0 0 0 0 0 0 0 0 0 0 0 0 0 0 0 0 0.25 0"/>
<feBlend mode="overlay" in2="shape" result="effect1_innerShadow"/>
</filter>
<linearGradient id="paint0_linear" x1="375.631" y1="250.3" x2="149.235" y2="235.17" gradientUnits="userSpaceOnUse">
<stop stop-color="#29B67F"/>
<stop offset="1" stop-color="#3FC7F4"/>
</linearGradient>
</defs>
</svg>
